Division,WeightClassKg,Place,Name,Team,BodyweightKg,Best3SquatKg,Best3BenchKg,Best3DeadliftKg,TotalKg,Equipment,Event,Sex,BirthDate
Boys,51.71,1,Sebastian Garza,Sonora,49.99,124.74,65.77,129.27,319.78,Single-ply,SBD,M,
Boys,67.13,1,Matt Rosas,McCamey,63.14,161.03,102.06,183.7,446.79,Single-ply,SBD,M,
Boys,67.13,2,Ignacio Coronado,Sonora,64.5,147.42,97.52,161.03,405.97,Single-ply,SBD,M,
Boys,67.13,3,Andrew Martinez,Andrews,65.86,142.88,83.91,131.54,358.34,Single-ply,SBD,M,
Boys,67.13,4,Gadiel Rubio,Monahans,63.91,127.01,70.31,138.35,335.66,Single-ply,SBD,M,
Boys,67.13,5,Dylan Soltero,Wink,67.04,136.08,70.31,127.01,333.39,Single-ply,SBD,M,
Boys,67.13,6,Damian Charles,Crane,66.13,106.59,70.31,131.54,308.44,Single-ply,SBD,M,
Boys,67.13,7,Martin Stone,McCamey,64.41,124.74,65.77,102.06,292.57,Single-ply,SBD,M,
Boys,74.84,1,Diego Mendoza,Crane,69.49,192.78,115.67,183.7,492.15,Single-ply,SBD,M,
Boys,74.84,2,Jackson Carroll,Sonora,71.49,170.1,83.91,183.7,437.72,Single-ply,SBD,M,
Boys,74.84,3,Tanner Flanagan,Sonora,69.76,170.1,83.91,170.1,424.11,Single-ply,SBD,M,
Boys,74.84,4,Adan Saucedo,Monahans,71.67,149.69,79.38,179.17,408.23,Single-ply,SBD,M,
Boys,74.84,5,Jose Armendariz,Andrews,73.3,142.88,88.45,167.83,399.16,Single-ply,SBD,M,
Boys,74.84,6,Jd Solis,Iraan,69.94,142.88,70.31,172.37,385.55,Single-ply,SBD,M,
Boys,74.84,7,Leo Novogradic,Andrews,70.22,115.67,83.91,147.42,347,Single-ply,SBD,M,
Boys,74.84,8,Gilbert Garcia,McCamey,74.8,136.08,83.91,127.01,347,Single-ply,SBD,M,
Boys,74.84,9,Makinly Espinoza,Andrews,71.03,113.4,70.31,120.2,303.91,Single-ply,SBD,M,
Boys,74.84,10,Daughtry Hazelwood,McCamey,68.95,58.97,29.48,72.57,161.03,Single-ply,SBD,M,
Boys,74.84,DQ,Alexavier Santibanez,Andrews,70.03,,,,,Single-ply,SBD,M,
Boys,82.1,1,Jeren McDonald,Crane,80.29,188.24,111.13,165.56,464.93,Single-ply,SBD,M,
Boys,82.1,2,Rino Hernandez,Sonora,80.01,158.76,92.99,195.04,446.79,Single-ply,SBD,M,
Boys,82.1,3,Jacob Guy,Andrews,76.79,174.63,102.06,158.76,435.45,Single-ply,SBD,M,
Boys,82.1,4,Jose Mota,McCamey,79.38,167.83,70.31,136.08,374.21,Single-ply,SBD,M,
Boys,82.1,5,Cain Leyva,Monahans,81.42,140.61,88.45,140.61,369.68,Single-ply,SBD,M,
Boys,82.1,6,Cole Purcell,Wink,80.01,140.61,83.91,142.88,367.41,Single-ply,SBD,M,
Boys,82.1,7,Aberham Gonzalez,Iraan,81.92,120.2,65.77,142.88,328.85,Single-ply,SBD,M,
Boys,89.81,1,Isaih Montoya,Andrews,87.32,172.37,111.13,176.9,460.4,Single-ply,SBD,M,
Boys,89.81,2,Cole Flora,Andrews,88.63,181.44,102.06,174.63,458.13,Single-ply,SBD,M,
Boys,89.81,3,Mario Fernandez,Sonora,84.28,161.03,120.2,147.42,428.64,Single-ply,SBD,M,
Boys,89.81,4,Miguel Sanchez,McCamey,85.73,165.56,95.25,165.56,426.38,Single-ply,SBD,M,
Boys,89.81,5,Anthony Baeza,Andrews,88.13,120.2,81.65,120.2,322.05,Single-ply,SBD,M,
Boys,89.81,6,Orlando Villegas,Crane,86.82,106.59,70.31,111.13,288.03,Single-ply,SBD,M,
Boys,89.81,7,Julian Varela,Andrews,85.55,83.91,79.38,115.67,278.96,Single-ply,SBD,M,
Boys,89.81,DQ,Adan Sanchez,Iraan,84.59,179.17,115.67,,,Single-ply,SBD,M,
Boys,99.79,1,Elijah Samaniego,Sonora,99.7,226.8,104.33,181.44,512.56,Single-ply,SBD,M,
Boys,99.79,2,Lucas Ordonez #1,Monahans,98.29,179.17,115.67,181.44,476.27,Single-ply,SBD,M,
Boys,99.79,3,Jesus Carillo,Wink,99.79,181.44,104.33,154.22,439.98,Single-ply,SBD,M,
Boys,99.79,4,Hector Lozoya,Andrews,96.75,145.15,102.06,161.03,408.23,Single-ply,SBD,M,
Boys,99.79,5,Alonzo Uranga,Monahans,94.57,147.42,86.18,147.42,381.02,Single-ply,SBD,M,
Boys,99.79,6,Anthony Rivera,Monahans,91.81,129.27,68.04,136.08,333.39,Single-ply,SBD,M,
Boys,99.79,7,Grayson Ellis,Wink,91.81,127.01,90.72,104.33,322.05,Single-ply,SBD,M,
Boys,99.79,8,Hugo Montes,Crane,90.72,124.74,65.77,129.27,319.78,Single-ply,SBD,M,
Boys,109.77,1,Paul Walker #2,Crane,103.19,274.42,167.83,249.48,691.73,Single-ply,SBD,M,
Boys,109.77,2,Elijah Velarde,Crane,100.7,226.8,133.81,183.7,544.31,Single-ply,SBD,M,
Boys,109.77,3,David Zamora,Andrews,105.96,206.38,120.2,215.46,542.04,Single-ply,SBD,M,
Boys,109.77,4,Antonio Garza,Crane,101.33,222.26,127.01,188.24,537.51,Single-ply,SBD,M,
Boys,109.77,5,Ivan Montes,Monahans,109.32,185.97,106.59,226.8,519.36,Single-ply,SBD,M,
Boys,109.77,6,Robert Burrow,Monahans,104.33,190.51,106.59,181.44,478.54,Single-ply,SBD,M,
Boys,109.77,7,Cash Flores,Monahans,107.41,151.95,108.86,170.1,430.91,Single-ply,SBD,M,
Boys,109.77,8,Adolfo Leija,Monahans,101.51,127.01,68.04,149.69,344.73,Single-ply,SBD,M,
Boys,109.77,DQ,Gavin Garcia,Andrews,100.15,165.56,,,,Single-ply,SBD,M,
Boys,124.74,1,Marcos Villalobos,Sonora,115.94,215.46,111.13,238.14,564.72,Single-ply,SBD,M,
Boys,124.74,2,Moises Rodriguez,Monahans,113.85,197.31,124.74,210.92,532.97,Single-ply,SBD,M,
Boys,124.74,3,Jacob Martinez,Sonora,117.3,183.7,129.27,183.7,496.68,Single-ply,SBD,M,
Boys,124.74,4,Ivan Mendoza,Iraan,119.98,204.12,83.91,199.58,487.61,Single-ply,SBD,M,
Boys,124.74,5,Ethan Turegano,Wink,110.59,172.37,108.86,154.22,435.45,Single-ply,SBD,M,
Boys,124.74,DQ,Cj Leyva,Crane,116.94,120.2,79.38,,,Single-ply,SBD,M,
Boys,139.71,1,Isaiah Garcia,McCamey,125.28,272.16,124.74,213.19,610.08,Single-ply,SBD,M,
Boys,139.71,2,Gilberto Martinez,Andrews,138.8,151.95,102.06,151.95,405.97,Single-ply,SBD,M,
Boys,139.71,3,Jonathan Santiago,McCamey,130.18,117.93,72.57,117.93,308.44,Single-ply,SBD,M,
Boys,139.71+,1,Jalen Ramirez,Wink,149.41,231.33,127.01,226.8,585.13,Single-ply,SBD,M,
Boys,,NS,Raymond Epley,Wink,,,,,,Single-ply,SBD,M,
Boys,,NS,Skylen Copeland,Wink,,,,,,Single-ply,SBD,M,
Boys,,NS,Jesse Putnam,Wink,,,,,,Single-ply,SBD,M,
Boys,,NS,Kyle Barnhill,Wink,,,,,,Single-ply,SBD,M,
Boys,,NS,Ethan Cahill,Wink,,,,,,Single-ply,SBD,M,
Boys,,NS,Eddie Mendoza,Wink,,,,,,Single-ply,SBD,M,
Boys,,NS,Juan Torres-Mesa,Sonora,,,,,,Single-ply,SBD,M,
Boys,,NS,Bryan Bejarano,Monahans,,,,,,Single-ply,SBD,M,
Boys,,NS,Michael Smith #28,Iraan,,,,,,Single-ply,SBD,M,
Boys,,NS,Travis Handley,Andrews,,,,,,Single-ply,SBD,M,
