Name,Age,Division,Equipment,BodyweightKg,WeightClassKg,Sex,Squat1Kg,Squat2Kg,Squat3Kg,Squat4Kg,Best3SquatKg,Bench1Kg,Bench2Kg,Bench3Kg,Bench4Kg,Best3BenchKg,Deadlift1Kg,Deadlift2Kg,Deadlift3Kg,Deadlift4Kg,Best3DeadliftKg,TotalKg,Place,Event,BirthDate,Tested
Lucy O Neill,35,F_OCR_IPO,Wraps,64.3,67.5,F,110,-120,120,,120,65,75,-80,,75,120,130,140,,140,335,1,SBD,,
Lisa Duggan,44,F_MCR_1_IPO,Wraps,51.05,52,F,-90,90,-100,,90,50,52.5,-55,,52.5,115,120,125,,125,267.5,1,SBD,,
Nicola Phelan,38,F_OR_IPO,Raw,69.5,75,F,90,100,-110,,100,70,75,77.5,80,77.5,137.5,145,-150,,145,322.5,1,SBD,,
Laura Vogelsang,30,F_OCR_IPO,Wraps,87.65,90,F,227.5,245,260,,260,112.5,120,126,,126,210,225,240,,240,626,1,SBD,,
Megan Haverty,26,F_OES_AIPO,Single-ply,46.8,48,F,95,-105,110,,110,-65,65,-70,,65,90,-95,-95,,90,265,1,SBD,,Yes
Edyta Piechowicz,35,F_OES_AIPO,Single-ply,63.95,67.5,F,150,160,-167.5,,160,75,80,-85,,80,160,-170,-170,,160,400,1,SBD,,Yes
Paulina Coleman,43,F_MES_1_AIPO,Single-ply,88.7,90,F,-200,-200,200,220,200,100,110,-120,,110,195,205,210,,210,520,1,SBD,,Yes
Elaine Corbett,37,F_OCR_AIPO,Wraps,46.8,48,F,95,105,-110,,105,47.5,50,52.5,,52.5,122.5,132.5,-137.5,,132.5,290,1,SBD,,Yes
Aisling Judge,32,F_OCR_AIPO,Wraps,74.95,75,F,155,165,-170,,165,75,-77.5,-77.5,,75,175,180,185,,185,425,1,SBD,,Yes
Kim Duggan,49,F_MCR_2_AIPO,Wraps,51.15,52,F,70,75,-82.5,,75,42.5,47.5,-52.5,,47.5,100,110,120,,120,242.5,1,SBD,,Yes
Arlette Bomahou,45,F_MCR_2_AIPO,Wraps,101.45,90+,F,87.5,-92.5,92.5,,92.5,57.5,62.5,67.5,,67.5,110,120,130,,130,290,1,SBD,,Yes
Chloe Andrews,21,F_JCR_AIPO,Wraps,57.75,60,F,80,85,90,,90,47.5,52.5,-55,,52.5,120,127.5,135,140,135,277.5,1,SBD,,Yes
Meghan O'Neill,30,F_OR_AIPO,Raw,47.9,48,F,75,-85,90,,90,30,37.5,40,,40,100,110,120,,120,250,1,SBD,,Yes
Richie Power,37,M_OEM_IPO,Multi-ply,81.55,82.5,M,-350,-350,-350,,,,,,,,,,,,,,DQ,SBD,,
Shane Brodie,47,M_OEM_IPO,Multi-ply,87.35,90,M,355,-375,375,-410,375,180,-187.5,-187.5,,180,240,255,260,,260,815,1,SBD,,
James McNamara,37,M_OEM_IPO,Multi-ply,134.1,140,M,220,-320,-320,,220,170,-175,-175,,170,220,235,245,,245,635,1,SBD,,
Shane Brodie,47,M_MEM_2_IPO,Multi-ply,87.35,90,M,355,-375,375,-410,375,180,-187.5,-187.5,,180,240,255,260,,260,815,1,SBD,,
Paudie Phelan,46,M_MEM_2_IPO,Multi-ply,133.8,140,M,-280,-280,280,,280,-220,-220,220,,220,250,260,-270,,260,760,1,SBD,,
Graeme Quirke,42,M_MES_1_IPO,Single-ply,86.1,90,M,85,,,,85,-210,-215,-215,,,,,,,,,DQ,SBD,,
Sean Hough,24,M_OR_IPO,Raw,124.9,125,M,210,220,230,,230,150,157.5,165,,165,250,265,275,,275,670,1,SBD,,
Nick Sazenski,27,M_OEM_AIPO,Multi-ply,95.3,100,M,-325,-325,325,,325,-200,200,-210,,200,285,300,-317.5,,300,825,1,SBD,,Yes
Jamie Hogan,33,M_OEM_AIPO,Multi-ply,124.6,125,M,-275,275,-300,,275,-185,185,200,,200,200,215,225,,225,700,1,SBD,,Yes
Barry Smith #1,33,M_OES_AIPO,Single-ply,54.85,56,M,205,220,,,220,90,135,-150,,135,200,-220,-220,,200,555,1,SBD,,Yes
Darragh O'Keeffe,18,M_TES_3_AIPO,Single-ply,89.15,90,M,255,-260,260,,260,155,162.5,-170,,162.5,250,-265,265,-280,265,687.5,1,SBD,,Yes
David Carroll #1,50,M_MR_3_AIPO,Raw,87.1,90,M,120,130,-140,,130,90,95,-100,,95,145,155,160,,160,385,1,SBD,,Yes
Niall O'Keeffe,44,M_MR_1_AIPO,Raw,82.5,82.5,M,140,150,160,,160,145,152.5,160,,160,190,-205,-205,,190,510,1,SBD,,Yes
Brian O Donoghue,44,M_MR_1_AIPO,Raw,86.9,90,M,130,-140,140,,140,-105,-105,105,,105,130,140,-145,,140,385,1,SBD,,Yes
Martin O Mahony,41,M_MR_1_AIPO,Raw,99.45,100,M,185,195,200,,200,125,132.5,-140,,132.5,240,255,270,-275,270,602.5,1,SBD,,Yes
Andrew Cox,20,M_JR_AIPO,Raw,95.85,100,M,195,207.5,212.5,,212.5,135,145,-152.5,,145,245,265,285,,285,642.5,1,SBD,,Yes
David Fitzgerald #1,20,M_JR_AIPO,Raw,90.15,100,M,187.5,197.5,205,,205,127.5,135,142.5,,142.5,215,222.5,-227.5,,222.5,570,2,SBD,,Yes
Caoilin Traynor,21,M_JR_AIPO,Raw,104.95,110,M,185,197.5,205,,205,125,135,142.5,,142.5,210,225,232.5,,232.5,580,1,SBD,,Yes
Aaron Mc Donnell,19,M_TR_3_AIPO,Raw,112.25,125,M,180,190,197.5,,197.5,135,145,-152.5,,145,170,190,205,,205,547.5,1,SBD,,Yes
Oļegs Šaruks,37,M_OCR_IPO,Wraps,75.55,82.5,M,260,275,-280,,275,170,180,185,,185,235,255,262.5,,262.5,722.5,1,SBD,,
Derek Abbott,36,M_OCR_IPO,Wraps,81.75,82.5,M,245,-260,262.5,,262.5,145,157.5,165,,165,245,262.5,270,,270,697.5,2,SBD,,
Lenny O Sullivan,25,M_OCR_IPO,Wraps,89.35,90,M,290,-305,305,,305,185,195,202.5,,202.5,285,295,302.5,,302.5,810,1,SBD,,
Gavin Ryder,28,M_OCR_IPO,Wraps,116.4,125,M,290,-310,310,,310,170,180,-185,,180,280,305,-310,,305,795,1,SBD,,
Eoin O Neill,34,M_OCR_IPO,Wraps,124.05,125,M,-275,-275,-275,,,,,,,,,,,,,,DQ,SBD,,
Seamus Kirwan,50,M_MCR_3_IPO,Wraps,89.4,90,M,235,245,-252.5,,245,135,-145,-145,,135,240,250,255,,255,635,1,SBD,,
Ray Foley,41,M_MCR_1_IPO,Wraps,122.6,125,M,-257.5,257.5,-270,,257.5,177.5,185,187.5,,187.5,290,300,-305,,300,745,1,SBD,,
Bobby Leask,28,M_OCR_AIPO,Wraps,82.3,82.5,M,205,-220,-220,,205,122.5,-132.5,132.5,,132.5,220,235,-250,,235,572.5,1,SBD,,Yes
Mark Cosgrove,32,M_OCR_AIPO,Wraps,88.8,90,M,210,230,245,,245,140,150,-157.5,,150,220,240,250,,250,645,1,SBD,,Yes
Kevin McDermott,35,M_OCR_AIPO,Wraps,89.6,90,M,190,202.5,210,,210,130,137.5,140,,140,230,255,262.5,-272.5,262.5,612.5,2,SBD,,Yes
Dave Fitzpatrick,33,M_OCR_AIPO,Wraps,85.25,90,M,205,217.5,-222.5,,217.5,127.5,137.5,-142.5,,137.5,230,245,-257.5,,245,600,3,SBD,,Yes
Mark Pepper,34,M_OCR_AIPO,Wraps,88.1,90,M,155,162.5,170,,170,72.5,80,85,,85,200,210,215,,215,470,4,SBD,,Yes
Tony Stringer,39,M_OCR_AIPO,Wraps,98.3,100,M,190,210,,,210,160,170,-172.5,,170,220,-240,,,220,600,1,SBD,,Yes
Shane Clavin,35,M_OCR_AIPO,Wraps,113.5,125,M,160,175,190,,190,92.5,100,-105,,100,190,200,210,,210,500,1,SBD,,Yes
Niall Finneran,26,M_OCR_AIPO,Wraps,128.7,140,M,240,255,,,255,160,175,-185,,175,280,302.5,-310,,302.5,732.5,1,SBD,,Yes
Brendan O'Rourke,45,M_MCR_2_AIPO,Wraps,94.65,100,M,180,200,210,,210,135,142.5,147.5,,147.5,225,242.5,250,,250,607.5,1,SBD,,Yes
Gareth Walsh #1,48,M_MCR_2_AIPO,Wraps,59.4,60,M,120,-127.5,130,,130,90,-95,95,,95,160,-175,-175,,160,385,1,SBD,,Yes
Kevin Holland,43,M_MCR_1_AIPO,Wraps,92.95,100,M,205,-215,,,205,120,-127.5,-127.5,,120,200,215,-222.5,,215,540,1,SBD,,Yes
Tristan McDonagh,23,M_JCR_AIPO,Wraps,73.95,75,M,-205,205,-215,,205,120,130,132.5,-137.5,132.5,200,220,227.5,-235,227.5,565,1,SBD,,Yes
Jay Holland,20,M_JCR_AIPO,Wraps,81.7,82.5,M,205,225,240.5,,240.5,105,110,-115,,110,200,215,217.5,,217.5,568,1,SBD,,Yes
James Farrell,20,M_JCR_AIPO,Wraps,81.4,82.5,M,165,172.5,-187.5,,172.5,90,97.5,-100,,97.5,190,202.5,-210,,202.5,472.5,2,SBD,,Yes
Adam Murray #1,20,M_JCR_AIPO,Wraps,86.7,90,M,135,150,160,,160,85,90,-95,,90,180,192.5,202.5,,202.5,452.5,1,SBD,,Yes
Peter Finegan,20,M_JCR_AIPO,Wraps,89.5,90,M,150,160,-170,,160,90,95,-97.5,,95,170,180,-185,,180,435,2,SBD,,Yes
Kieran Riley,20,M_JCR_AIPO,Wraps,91.35,100,M,145,155,165,,165,90,95,-100,,95,200,210,220,,220,480,1,SBD,,Yes
Callum Golding,22,M_JCR_AIPO,Wraps,96.8,100,M,135,145,155,,155,85,95,100,,100,175,185,200,,200,455,2,SBD,,Yes
Evan Tyndall,18,M_TCR_3_AIPO,Wraps,115.8,125,M,175,190,210,,210,110,117.5,122.5,,122.5,190,205,215,,215,547.5,1,SBD,,Yes
Luke Murphy,16,M_TCR_2_AIPO,Wraps,89.7,90,M,140,155,175,,175,90,97.5,100,,100,150,165,175,,175,450,1,SBD,,Yes
Cameron Murray,17,M_TCR_2_AIPO,Wraps,98.25,100,M,175,190,200,,200,87.5,92.5,-95,,92.5,190,205,-212.5,,205,497.5,1,SBD,,Yes
Oisin Smith,15,M_TCR_1_AIPO,Wraps,85.6,90,M,140,150,155,157.5,155,77.5,80,85,,85,182.5,192.5,200,,200,440,1,SBD,,Yes
