Division,WeightClassKg,Place,Name,Team,BodyweightKg,Best3SquatKg,Best3BenchKg,Best3DeadliftKg,TotalKg,Equipment,Event,Sex
Boys,51.71,1,Leo Martinez,Rio Grande City,50.35,133.81,88.45,147.42,369.68,Single-ply,SBD,M
Boys,51.71,2,Fernando Gonzalez,McAllen Memorial,48.72,90.72,65.77,129.27,285.76,Single-ply,SBD,M
Boys,51.71,3,Jesus Puente,La Joya Palmview,47.54,99.79,56.7,108.86,265.35,Single-ply,SBD,M
Boys,55.79,1,Anthony Borrego,McAllen,54.7,136.08,90.72,142.88,369.68,Single-ply,SBD,M
Boys,55.79,2,Ismael Talamante,Rio Grande City,55.43,124.74,90.72,140.61,356.07,Single-ply,SBD,M
Boys,55.79,3,Carlos Avila,La Joya,52.53,108.86,72.57,117.93,299.37,Single-ply,SBD,M
Boys,59.87,1,Eduardo Elizondo,Rio Grande City Grulla,58.88,145.15,97.52,151.95,394.63,Single-ply,SBD,M
Boys,59.87,2,Stanley Davis,McAllen Memorial,58.42,117.93,77.11,131.54,326.59,Single-ply,SBD,M
Boys,59.87,3,Ruben D Saenz,McAllen Rowe,59.78,127.01,70.31,122.47,319.78,Single-ply,SBD,M
Boys,59.87,DQ,Marcus Silva,McAllen Memorial,57.7,,,,,Single-ply,SBD,M
Boys,59.87,DQ,Andrew Elizarraras,McAllen,58.42,,,,,Single-ply,SBD,M
Boys,59.87,DQ,Jesus Rosillo,McAllen,59.24,,,,,Single-ply,SBD,M
Boys,67.13,1,Abraham Hernandez,La Joya Palmview,65.14,229.06,113.4,249.48,591.94,Single-ply,SBD,M
Boys,67.13,2,Kevin Alanis,La Joya,64.14,190.51,104.33,195.04,489.88,Single-ply,SBD,M
Boys,67.13,3,Ricardo Pena #1,Rio Grande City,65.59,163.29,113.4,179.17,455.86,Single-ply,SBD,M
Boys,67.13,4,Jaaziel Espinoza,McAllen,67.04,163.29,106.59,170.1,439.98,Single-ply,SBD,M
Boys,67.13,5,Chris Rios,Rio Grande City,62.51,170.1,104.33,154.22,428.64,Single-ply,SBD,M
Boys,67.13,6,André Garcia #2,McAllen,67.13,138.35,97.52,151.95,387.82,Single-ply,SBD,M
Boys,67.13,DQ,Moise Olivarez,McAllen Memorial,64.23,176.9,,,,Single-ply,SBD,M
Boys,67.13,DQ,Jacob Pina,La Joya Palmview,66.22,217.72,,,,Single-ply,SBD,M
Boys,74.84,1,Roman Villarreal,McAllen Rowe,73.75,199.58,138.35,197.31,535.24,Single-ply,SBD,M
Boys,74.84,2,Julian Hernandez,McAllen Memorial,73.84,192.78,122.47,190.51,505.76,Single-ply,SBD,M
Boys,74.84,3,Juan Zurita,Rio Grande City,73.48,179.17,113.4,179.17,471.74,Single-ply,SBD,M
Boys,74.84,4,Brandon Manteca,McAllen Memorial,73.21,172.37,113.4,176.9,462.66,Single-ply,SBD,M
Boys,74.84,5,Aaron Acevedo,La Joya,73.48,167.83,104.33,156.49,428.64,Single-ply,SBD,M
Boys,74.84,DQ,Leo Garza #2,La Joya,74.84,,,,,Single-ply,SBD,M
Boys,74.84,DQ,Jazaih Escamilla,McAllen Memorial,73.66,210.92,138.35,,,Single-ply,SBD,M
Boys,74.84,DQ,Jonathan Casarez,Rio Grande City,67.68,,,,,Single-ply,SBD,M
Boys,82.1,1,Diego Hernandez,La Joya Palmview,78.93,219.99,145.15,229.06,594.21,Single-ply,SBD,M
Boys,82.1,2,Rogelio Gutierrez,McAllen,81.47,204.12,140.61,206.38,551.11,Single-ply,SBD,M
Boys,82.1,3,Ulysses Vasquez,McAllen Memorial,80.74,199.58,136.08,213.19,548.85,Single-ply,SBD,M
Boys,82.1,4,Alfredo Perez,La Joya,80.56,215.46,99.79,195.04,510.29,Single-ply,SBD,M
Boys,82.1,5,Moises Pena,Rio Grande City Grulla,79.2,147.42,97.52,127.01,371.95,Single-ply,SBD,M
Boys,82.1,6,Joe Sanchez,Rio Grande City Grulla,78.02,145.15,74.84,142.88,362.87,Single-ply,SBD,M
Boys,82.1,DQ,Joel Pina,La Joya Palmview,79.83,226.8,136.08,,,Single-ply,SBD,M
Boys,89.81,1,Joel Moreno,Mission Sharyland,89.09,238.14,120.2,226.8,585.13,Single-ply,SBD,M
Boys,89.81,2,Dylan Earhart,McAllen Memorial,89.81,210.92,127.01,217.72,555.65,Single-ply,SBD,M
Boys,89.81,3,Ryan Alvarez,Rio Grande City,85.64,210.92,117.93,204.12,532.97,Single-ply,SBD,M
Boys,89.81,4,Edgar Castillo,McAllen Rowe,88,192.78,106.59,199.58,498.95,Single-ply,SBD,M
Boys,89.81,5,Jose Quintero,McAllen Rowe,86.73,83.91,102.06,83.91,269.89,Single-ply,SBD,M
Boys,89.81,DQ,Michael Morales,McAllen Rowe,85.37,,,,,Single-ply,SBD,M
Boys,89.81,DQ,Reynaldo Hernandez,La Joya,89.81,226.8,,,,Single-ply,SBD,M
Boys,89.81,DQ,Joe Ramos,Rio Grande City Grulla,83.37,181.44,115.67,,,Single-ply,SBD,M
Boys,99.79,1,Noah Cisneros,McAllen Memorial,99.7,249.48,151.95,215.46,616.89,Single-ply,SBD,M
Boys,99.79,2,Amadeo Salinas,McAllen,98.61,192.78,140.61,179.17,512.56,Single-ply,SBD,M
Boys,99.79,DQ,Jeremiah Ramon,Rio Grande City,96.62,181.44,129.27,,,Single-ply,SBD,M
Boys,99.79,DQ,Eddie Garza,Rio Grande City,97.61,,,,,Single-ply,SBD,M
Boys,99.79,DQ,Jose Avalos,La Joya Palmview,92.53,213.19,136.08,,,Single-ply,SBD,M
Boys,99.79,DQ,Mario Cervantes,McAllen Rowe,91.08,188.24,122.47,,,Single-ply,SBD,M
Boys,109.77,1,Sam Rodriguez,La Joya,109.77,301.64,174.63,247.21,723.48,Single-ply,SBD,M
Boys,109.77,2,Miguel Salazar,Rio Grande City Grulla,105.32,226.8,120.2,204.12,551.11,Single-ply,SBD,M
Boys,109.77,3,Luis Garcia #6,Rio Grande City Grulla,106.96,213.19,124.74,190.51,528.44,Single-ply,SBD,M
Boys,109.77,4,Andrew Lopez,Rio Grande City Grulla,108.59,199.58,129.27,183.7,512.56,Single-ply,SBD,M
Boys,109.77,5,Arturo Pena,La Joya Palmview,106.41,208.65,120.2,181.44,510.29,Single-ply,SBD,M
Boys,109.77,6,Jesse Garza,McAllen Rowe,106.68,129.27,79.38,158.76,367.41,Single-ply,SBD,M
Boys,109.77,DQ,Jarome Torres,McAllen Memorial,107.86,263.08,158.76,,,Single-ply,SBD,M
Boys,109.77,DQ,Carlos Rivera,McAllen,108.59,,,,,Single-ply,SBD,M
Boys,109.77,DQ,Roberto Barba,La Joya Palmview,107.14,240.4,,,,Single-ply,SBD,M
Boys,109.77,DQ,Fernando Robles,Rio Grande City,109.68,235.87,129.27,,,Single-ply,SBD,M
Boys,124.74,1,Luis Salinas,Rio Grande City,118.93,238.14,170.1,254.01,662.24,Single-ply,SBD,M
Boys,124.74,2,Eduardo Lopez,Rio Grande City Grulla,114.67,204.12,131.54,215.46,551.11,Single-ply,SBD,M
Boys,124.74,3,Gerardo Lopez,McAllen,121.11,213.19,151.95,165.56,530.7,Single-ply,SBD,M
Boys,124.74,DQ,Esau Guerra,Rio Grande City Grulla,113.76,172.37,,,,Single-ply,SBD,M
Boys,124.74+,1,Marco Rangel,La Joya Palmview,159.48,215.46,138.35,213.19,566.99,Single-ply,SBD,M
Boys,124.74+,2,Jacob Mata,McAllen Rowe,140.43,102.06,113.4,142.88,358.34,Single-ply,SBD,M
Boys,124.74+,DQ,Michael Vega,McAllen Rowe,142.25,306.17,195.04,,,Single-ply,SBD,M
Boys,124.74+,DQ,Arturo Ochoa,McAllen,130.18,,,,,Single-ply,SBD,M
