﻿WORLD POWERLIFTING NIUE

c/- Motoria Tanos Gym			em: tanosgym@niue.nu
Vailoa				Speedo.Hetutu@mail.gov.nu		
Alofi Tokelau
Niue

2021 NATIONALS
19TH October 2021 – Claytons Club

FINAL RESULTS.

YOUTH CATEGORY:
Female;
1. Hanalei KIFOTO	     DOB;03/06/2008   BW;73.7kg     Cat;75kg
	BS;70kg   BP;40kg   DL;110kg  Total;220kg

2. Krisalyn SIPENI      DOB;07/03/2006   BW;116.1        Cat;100+kg
	BS;165kg BP;60kg   DL;170kg  Total;395kg      
Male:
1. Max AHOLIMA         DOB;03/06/2008   BW;83.6kg     Cat;85kg
	BS;80kg   BP;50kg   DL;130kg  Total:260kg 

2. Aelani MAUTAMA   DOB;06/01/2008   BW;115.5kg   Cat;120kg
	BS;140kg BP;90kg   DL;180kg  Total:410kg

3 Neli NUALOA             DOB;19/08/2003   BW;124.8kg  Cat;120+kg
	BS;150kg BP;105kg DL;200kg  Total;455kg

4. Jaden IKITULE        DOB;12/08/2003  BW;112.8kg   Cat;120kg   
BS;170kg BP;100kg  DL;200kg  Total:470kg 
	
JUNIOR CATEGORY
1. MosesMAUTAMA   DOB;07/03/2000   BW;137.9kg  Cat:120+kg
	BS;245kg  BP;120kg   DL:260kg  Total;625kg   

MASTERS.
1. Alan PULEOSI	      DOB;10/12/1957   BW;96.6kg   Cat; M60-64
	BS;115kg…BP;80kg   DL;180kg   Total;370kg

2. Ikivale KIFOTO        DOB;29/12/1971    BW;96.7kg   Cat;M45-50
	BS;165kg   BP;110kg   DL;20 0kg Total:475kg

BENCH PRESS ONLY
Men’s Open
1. Moree TUKUNIU      			      BW:130kg    Cat. 120+kg
	BP;120kg
2. Jack Jnr. FELETI    DOB;		      BW;85kg      Cat; 85kg
	BP;130kg
