Place,Name,Sex,Event,Division,WeightClassKg,Equipment,BirthYear,Team,State,BodyweightKg,Squat1Kg,Squat2Kg,Squat3Kg,Best3SquatKg,Bench1Kg,Bench2Kg,Bench3Kg,Best3BenchKg,Deadlift1Kg,Deadlift2Kg,Deadlift3Kg,Best3DeadliftKg,TotalKg,Age,BirthDate
1,Leyna Koepke,F,SBD,F-JV,52,Single-ply,2007,,PA,51.29,90,95,100,100,37.5,40,-42.5,40,87.5,95,100,100,240,,
1,Hanah Seehafer,F,SBD,F-JV,56,Single-ply,2006,,WI,55.34,-110,110,120,120,-50,-50,50,50,120,125,-137.5,125,295,,
2,Abbey Kelley,F,SBD,F-JV,56,Single-ply,2006,GTown Power,WI,53.01,102.5,112.5,-120,112.5,60,-65,-65,60,100,110,117.5,117.5,290,,
3,Ellyanna Gersonde,F,SBD,F-JV,56,Single-ply,2007,GTown Power,WI,53.14,-90,90,-102.5,90,47.5,-52.5,-52.5,47.5,90,-102.5,102.5,102.5,240,,
1,Elizabeth Kroll,F,SBD,F-JV,60,Single-ply,2007,GTown Power,WI,56.93,105,115,-125,115,55,-62.5,62.5,62.5,105,117.5,-125,117.5,295,,
2,Abbygale Kuhlenbeck,F,SBD,F-JV,60,Single-ply,2007,GTown Power,WI,56.78,85,95,-100,95,37.5,42.5,-45,42.5,90,97.5,-105,97.5,235,,
1,Ashley Kelley,F,SBD,F-JV,67.5,Single-ply,2006,GTown Power,WI,64.92,97.5,-105,-105,97.5,52.5,57.5,-62.5,57.5,90,97.5,102.5,102.5,257.5,,
1,Jenna Austin,F,SBD,F-JV,82.5,Single-ply,2006,,WI,80.15,142.5,152.5,160,160,-60,60,65,65,115,125,-137.5,125,350,,
2,Julia Sina,F,SBD,F-JV,82.5,Single-ply,2006,GTown Power,WI,75.91,105,115,-125,115,60,-65,65,65,-117.5,117.5,125,125,305,,
1,Abigail Ramsey,F,SBD,F-V,48,Single-ply,2004,,WI,46.61,-92.5,95,-107.5,95,40,-42.5,42.5,42.5,82.5,92.5,-102.5,92.5,230,,
1,Brooklyn Mazzuca,F,SBD,F-V,52,Single-ply,2006,,WI,50.83,-110,110,115,115,60,65,70,70,110,115,120,120,305,,
2,Margaret Durand,F,SBD,F-V,52,Single-ply,2004,GTown Power,WI,49.78,-105,105,117.5,117.5,55,-60,60,60,105,112.5,-127.5,112.5,290,,
3,Kayleigh Koepke,F,SBD,F-V,52,Single-ply,2005,,PA,50.92,-110,-110,110,110,47.5,52.5,55,55,107.5,115,-122.5,115,280,,
1,Allison Hoerner,F,SBD,F-V,56,Single-ply,2005,,TX,55.91,137.5,-147.5,147.5,147.5,70,75,80,80,137.5,150,157.5,157.5,385,,
2,Sophia Kovnesky,F,SBD,F-V,56,Single-ply,2004,Oak Creek Powerlifting,WI,55.57,117.5,-125,-125,117.5,-52.5,52.5,-55,52.5,120,125,130,130,300,,
1,Abigail Schuerman,F,SBD,F-V,60,Single-ply,2004,,WI,59.89,137.5,150,155,155,60,82.5,87.5,87.5,137.5,-150,-150,137.5,380,,
2,Daniela Valdez,F,SBD,F-V,60,Single-ply,2004,,TX,59.57,-160,160,-172.5,160,65,-70,70,70,142.5,-152.5,-152.5,142.5,372.5,,
3,Molly Wysocky,F,SBD,F-V,60,Single-ply,2005,,WI,58.61,-115,-115,115,115,60,65,-67.5,65,-115,115,127.5,127.5,307.5,,
1,Peyton Busteed,F,SBD,F-V,75,Single-ply,2004,,NE,72.79,170,182.5,187.5,187.5,90,97.5,100,100,170,180,-190,180,467.5,,
2,Abigail Hoelzel,F,SBD,F-V,75,Single-ply,2005,,WI,74.39,-135,-135,135,135,55,57.5,60,60,132.5,140,147.5,147.5,342.5,,
1,Chloe Cooper,F,SBD,F-V,90,Single-ply,2004,,WI,85.83,167.5,175,-185,175,90,-95,95,95,150,160,-165,160,430,,
1,Avery Dunlap,F,SBD,F-V,100,Single-ply,2005,GTown Power,WI,90.81,-155,-155,155,155,-95,-95,95,95,135,145,150,150,400,,
2,Abi Kreger,F,SBD,F-V,100,Single-ply,2004,,WI,92.34,157.5,165,170,170,77.5,82.5,85,85,132.5,-140,-145,132.5,387.5,,
1,Ruthie Sanchez,F,SBD,F-V,100+,Single-ply,2006,,TX,149.88,-227.5,247.5,260,260,-75,82.5,90,90,142.5,-160,-180,142.5,492.5,,
2,Arabella Gelhaar,F,SBD,F-V,100+,Single-ply,2005,GTown Power,WI,104.87,175,187.5,195,195,97.5,102.5,107.5,107.5,155,162.5,172.5,172.5,475,,
1,Angelina Battige,F,SBD,F-V,67.5,Single-ply,2004,,WI,64.56,190,-205,207.5,207.5,97.5,115,127.5,127.5,190,-205,-205,190,525,,
2,Katherine Cargill,F,SBD,F-V,67.5,Single-ply,2005,,GA,66.59,-162.5,162.5,175,175,87.5,95,100,100,145,152.5,-155,152.5,427.5,,
3,Avery Anderson,F,SBD,F-V,67.5,Single-ply,2004,GTown Power,WI,64.68,137.5,150,160,160,65,70,-75,70,135,145,-152.5,145,375,,
4,Julia Sherman,F,SBD,F-V,67.5,Single-ply,2003,GTown Power,WI,64.38,125,132.5,140,140,57.5,65,70,70,-120,120,142.5,142.5,352.5,,
G,Raeann Lehman,F,SBD,FR-G,100+,Raw,2004,Osceola High School Powerlifting,WI,103.35,-110,110,-135,110,50,-52.5,-52.5,50,130,-140,140,140,300,,
1,Hailey Kamphuis,F,SBD,FR-JV,48,Raw,2006,,WI,46.87,70,75,-80,75,40,42.5,-45,42.5,85,90,-92.5,90,207.5,,
2,Adele Schilling,F,SBD,FR-JV,48,Raw,2007,,WI,47.19,65,70,-75,70,42.5,-47.5,47.5,47.5,65,72.5,80,80,197.5,,
3,Mallory Knott,F,SBD,FR-JV,48,Raw,2007,,PA,48,47.5,50,-55,50,30,32.5,-35,32.5,65,75,-80,75,157.5,,
1,Katelyn Doehrmann,F,SBD,FR-JV,52,Raw,2006,,WI,50.54,87.5,92.5,97.5,97.5,47.5,50,-52.5,50,120,127.5,132.5,132.5,280,,
2,Lauren Jansen,F,SBD,FR-JV,52,Raw,2006,,WI,49.32,102.5,-107.5,-107.5,102.5,47.5,50,-52.5,50,85,90,97.5,97.5,250,,
3,Hannah LaGesse,F,SBD,FR-JV,52,Raw,2006,,WI,51.12,87.5,-90,-92.5,87.5,45,47.5,-50,47.5,100,107.5,-117.5,107.5,242.5,,
1,Lillian Tesar,F,SBD,FR-JV,56,Raw,2006,,WI,55.73,67.5,72.5,-77.5,72.5,37.5,-40,40,40,87.5,92.5,97.5,97.5,210,,
2,Breanna Crocker,F,SBD,FR-JV,56,Raw,2006,,WI,52.81,60,-67.5,67.5,67.5,30,35,-37.5,35,85,95,100,100,202.5,,
DQ,Lydia Schaal,F,SBD,FR-JV,56,Raw,2007,,WI,55.08,-75,75,82.5,82.5,-45,-45,-45,,90,-97.5,-102.5,90,,,
1,Shelby Stricklin,F,SBD,FR-JV,60,Raw,2006,,WY,57.34,107.5,115,125,125,55,60,65,65,100,112.5,122.5,122.5,312.5,,
2,Jaiden Schroeder,F,SBD,FR-JV,60,Raw,2005,,WI,58.5,92.5,-97.5,-97.5,92.5,50,57.5,-60,57.5,112.5,122.5,-127.5,122.5,272.5,,
3,Berit Gilbertson,F,SBD,FR-JV,60,Raw,2005,,WI,56.68,90,-95,95,95,50,-55,55,55,97.5,102.5,112.5,112.5,262.5,,
4,Keileigh Doll,F,SBD,FR-JV,60,Raw,2006,,WI,57.89,70,75,80,80,32.5,37.5,40,40,102.5,110,117.5,117.5,237.5,,
5,Daniella McNeill,F,SBD,FR-JV,60,Raw,2007,,IN,57.97,77.5,85,-90,85,50,55,-60,55,77.5,85,90,90,230,,
6,Tara Wenzel,F,SBD,FR-JV,60,Raw,2007,,WI,56.92,65,72.5,-77.5,72.5,32.5,35,37.5,37.5,92.5,100,-105,100,210,,
1,Claire Dunneback,F,SBD,FR-JV,75,Raw,2006,Troy Athens,MI,72.05,105,112.5,122.5,122.5,67.5,72.5,77.5,77.5,132.5,140,-147.5,140,340,,
2,Amelia Gercken,F,SBD,FR-JV,75,Raw,2005,,PA,71.8,115,122.5,127.5,127.5,52.5,60,62.5,62.5,110,117.5,122.5,122.5,312.5,,
3,Anneliese Farner,F,SBD,FR-JV,75,Raw,2006,,WI,72.47,107.5,117.5,-132.5,117.5,67.5,70,72.5,72.5,112.5,122.5,-130,122.5,312.5,,
4,Faith Bartley,F,SBD,FR-JV,75,Raw,2006,,MI,69.29,-95,95,-107.5,95,45,50,55,55,140,-147.5,-147.5,140,290,,
5,Brianna Yenter,F,SBD,FR-JV,75,Raw,2005,,WI,71.69,92.5,97.5,-102.5,97.5,52.5,55,-57.5,55,117.5,122.5,-127.5,122.5,275,,
1,Evelyn Edenburn,F,SBD,FR-JV,90,Raw,2006,,MI,88.02,125,137.5,147.5,147.5,57.5,62.5,-67.5,62.5,125,142.5,-155,142.5,352.5,,
2,Kyden Turner,F,SBD,FR-JV,90,Raw,2006,,WI,88.34,95,105,112.5,112.5,47.5,-57.5,-57.5,47.5,95,100,107.5,107.5,267.5,,
3,Addyson Neumann,F,SBD,FR-JV,90,Raw,2006,Osceola High School Powerlifting,WI,83.76,87.5,-95,95,95,35,40,-45,40,105,115,125,125,260,,
4,Jayda Kelly,F,SBD,FR-JV,90,Raw,2007,Pius XI,WI,89.59,65,70,-75,70,37.5,40,-42.5,40,77.5,100,112.5,112.5,222.5,,
1,Kaylani Alexis Lyons,F,SBD,FR-JV,100,Raw,2007,,AZ,97.69,147.5,155,-162.5,155,85,92.5,95,95,155,157.5,-175,157.5,407.5,,
2,Addisyn Suhsen,F,SBD,FR-JV,100,Raw,2006,,WI,98.88,92.5,100,107.5,107.5,55,60,62.5,62.5,125,137.5,-147.5,137.5,307.5,,
3,Lillian Edenburn,F,SBD,FR-JV,100,Raw,2007,,MI,90.75,95,-102.5,102.5,102.5,42.5,-47.5,52.5,52.5,95,102.5,110,110,265,,
1,Daytona Hensley,F,SBD,FR-JV,100+,Raw,2007,,WI,105.1,130,140,147.5,147.5,52.5,55,57.5,57.5,110,120,122.5,122.5,327.5,,
2,Hannah Peters,F,SBD,FR-JV,100+,Raw,2006,Pius XI,WI,106.92,-110,110,-115,110,45,47.5,-52.5,47.5,95,-110,110,110,267.5,,
3,Chloe Borchert,F,SBD,FR-JV,100+,Raw,2007,,WI,113.03,-80,80,87.5,87.5,45,50,52.5,52.5,117.5,127.5,-137.5,127.5,267.5,,
1,Sophia Sabol,F,SBD,FR-JV,67.5,Raw,2006,,IN,61.55,115,125,132.5,132.5,47.5,52.5,-55,52.5,115,122.5,135,135,320,,
2,Stella Tintari,F,SBD,FR-JV,67.5,Raw,2006,,IN,66.55,110,117.5,125,125,60,65,67.5,67.5,110,120,127.5,127.5,320,,
3,Isabelle Jobin,F,SBD,FR-JV,67.5,Raw,2006,,NH,66.81,95,102.5,110,110,50,-55,-55,50,107.5,115,117.5,117.5,277.5,,
4,Brooke Lee,F,SBD,FR-JV,67.5,Raw,2005,Troy Athens,MI,65.63,90,95,100,100,57.5,60,-62.5,60,102.5,107.5,-112.5,107.5,267.5,,
5,Lydia Forney,F,SBD,FR-JV,67.5,Raw,2005,,WI,64.34,80,85,-92.5,85,42.5,50,-52.5,50,115,117.5,122.5,122.5,257.5,,
6,Natalie Gilliam,F,SBD,FR-JV,67.5,Raw,2006,,MI,62.38,70,77.5,-85,77.5,40,45,50,50,90,100,107.5,107.5,235,,
7,Rebecca Miracle,F,SBD,FR-JV,67.5,Raw,2007,,MI,61.44,72.5,80,-85,80,45,50,-52.5,50,100,-107.5,-115,100,230,,
8,Elayna Noonan,F,SBD,FR-JV,67.5,Raw,2006,Osceola High School Powerlifting,WI,62.5,62.5,70,-72.5,70,37.5,40,-42.5,40,82.5,92.5,100,100,210,,
9,Sophia Lauck,F,SBD,FR-JV,67.5,Raw,2006,,WI,61.15,65,70,75,75,-37.5,37.5,40,40,87.5,92.5,-97.5,92.5,207.5,,
10,Trinity Aasen,F,SBD,FR-JV,67.5,Raw,2007,,WI,61.96,62.5,67.5,-70,67.5,30,35,-40,35,75,-95,-95,75,177.5,,
1,Reya Johnson,F,SBD,FR-JV,82.5,Raw,2006,Troy Athens,MI,75.58,122.5,132.5,140,140,65,70,75,75,140,150,-160,150,365,,
2,Greta Anderson,F,SBD,FR-JV,82.5,Raw,2006,,WI,81,102.5,110,115,115,45,50,-52.5,50,100,107.5,110,110,275,,
3,Abbie Johnson,F,SBD,FR-JV,82.5,Raw,2006,,WI,81.37,90,95,102.5,102.5,42.5,45,-47.5,45,112.5,120,-130,120,267.5,,
4,Daphne Peterson,F,SBD,FR-JV,82.5,Raw,2007,,WI,79.89,-65,-65,65,65,42.5,45,-50,45,92.5,102.5,112.5,112.5,222.5,,
1,Autum Baughey,F,SBD,FR-V,44,Raw,2004,,MI,42.83,-72.5,72.5,-80,72.5,40,42.5,-45,42.5,85,92.5,-100,92.5,207.5,,
2,Andrea Laehn,F,SBD,FR-V,44,Raw,2005,,WI,41.66,75,80,-82.5,80,32.5,35,-37.5,35,75,85,-92.5,85,200,,
3,Madeline Anderson,F,SBD,FR-V,44,Raw,2007,Winneconne,WI,35.32,50,52.5,55,55,27.5,-30,30,30,65,70,72.5,72.5,157.5,,
4,Anastasia Blom,F,SBD,FR-V,44,Raw,2005,,SD,40.64,-47.5,47.5,52.5,52.5,25,-27.5,-27.5,25,55,-62.5,-62.5,55,132.5,,
1,Julia Jansen,F,SBD,FR-V,48,Raw,2005,,WI,46.13,95,100,-102.5,100,42.5,45,-47.5,45,97.5,-102.5,-102.5,97.5,242.5,,
2,Emma Forst,F,SBD,FR-V,48,Raw,2004,,WI,45.38,-82.5,-82.5,82.5,82.5,47.5,50,-55,50,97.5,102.5,-107.5,102.5,235,,
3,Juliana Palhof,F,SBD,FR-V,48,Raw,2006,,NH,46.49,70,-80,80,80,40,-45,45,45,92.5,100,-110,100,225,,
4,Lyla Stecker,F,SBD,FR-V,48,Raw,2006,,WI,46.13,67.5,75,77.5,77.5,27.5,-35,35,35,-95,107.5,110,110,222.5,,
5,McKenna Trowbridge,F,SBD,FR-V,48,Raw,2004,Hamlin High School,SD,46.63,60,65,70,70,40,-42.5,-45,40,100,102.5,105,105,215,,
6,Elizabeth Anderson,F,SBD,FR-V,48,Raw,2004,,WI,46.26,50,55,60,60,37.5,42.5,45,45,92.5,100,-105,100,205,,
7,Ariana Pinder,F,SBD,FR-V,48,Raw,2003,Elk Mound High School Powerlifting,WI,46.83,47.5,55,60,60,37.5,40,-42.5,40,87.5,92.5,97.5,97.5,197.5,,
8,Sarahi Giron,F,SBD,FR-V,48,Raw,2005,,NE,45.83,57.5,62.5,-67.5,62.5,32.5,-37.5,37.5,37.5,87.5,90,95,95,195,,
9,Anna Coates,F,SBD,FR-V,48,Raw,2006,Laconia High School,WI,45.18,65,70,-75,70,30,32.5,35,35,82.5,-92.5,-92.5,82.5,187.5,,
10,Rianna Davis,F,SBD,FR-V,48,Raw,2004,,PA,47.17,55,62.5,65,65,32.5,35,-37.5,35,80,82.5,85,85,185,,
11,Lydia Stys,F,SBD,FR-V,48,Raw,2005,,WI,47.75,55,-60,-60,55,25,30,-35,30,70,75,-80,75,160,,
1,Rylee Ladd,F,SBD,FR-V,52,Raw,2004,,WI,51.2,85,95,-97.5,95,60,65,-67.5,65,120,125,-132.5,125,285,,
2,Avery Covitz,F,SBD,FR-V,52,Raw,2007,,MA,49.42,-90,90,95,95,42.5,45,47.5,47.5,95,102.5,107.5,107.5,250,,
3,Piper Mendez,F,SBD,FR-V,52,Raw,2005,,WI,50.59,80,82.5,87.5,87.5,40,42.5,45,45,90,95,105,105,237.5,,
4,Carley Evers,F,SBD,FR-V,52,Raw,2005,,WI,50.22,65,-70,-70,65,40,42.5,45,45,110,117.5,122.5,122.5,232.5,,
5,Emily Nies,F,SBD,FR-V,52,Raw,2005,,PA,51.93,67.5,70,75,75,40,45,47.5,47.5,92.5,105,110,110,232.5,,
6,Emma Donahue,F,SBD,FR-V,52,Raw,2006,Neenah Powerlifting,WI,49.15,75,82.5,-90,82.5,35,40,-42.5,40,97.5,107.5,-115,107.5,230,,
7,Carly Crowell,F,SBD,FR-V,52,Raw,2003,,WI,51.43,72.5,-82.5,-85,72.5,32.5,37.5,42.5,42.5,87.5,100,-112.5,100,215,,
8,Brianna Ankerson,F,SBD,FR-V,52,Raw,2007,Neenah Powerlifting,WI,50.57,65,72.5,-80,72.5,35,37.5,-40,37.5,87.5,95,100,100,210,,
DQ,Lindsey James,F,SBD,FR-V,52,Raw,2004,,PA,51.9,82.5,90,-95,90,40,42.5,-45,42.5,-97.5,-97.5,-97.5,,,,
1,Sierra Braund,F,SBD,FR-V,56,Raw,2004,,WI,54.71,-97.5,-107.5,107.5,107.5,50,52.5,-57.5,52.5,130,-137.5,137.5,137.5,297.5,,
2,Megan Thurke,F,SBD,FR-V,56,Raw,2003,Laconia High School,WI,54.8,82.5,90,92.5,92.5,50,55,-60,55,130,140,145,145,292.5,,
3,Brooke LaPlount,F,SBD,FR-V,56,Raw,2003,,WI,54.43,102.5,110,117.5,117.5,57.5,-62.5,-62.5,57.5,102.5,115,-120,115,290,,
4,Ashley Wisnefske,F,SBD,FR-V,56,Raw,2004,Winneconne,WI,54.02,92.5,97.5,102.5,102.5,55,-57.5,-57.5,55,120,127.5,130,130,287.5,,
5,Elizabeth Pizarro,F,SBD,FR-V,56,Raw,2004,,WI,55.05,97.5,107.5,112.5,112.5,55,57.5,-60,57.5,105,112.5,117.5,117.5,287.5,,
6,Kylie VanDong,F,SBD,FR-V,56,Raw,2005,,WI,55.05,-82.5,-87.5,87.5,87.5,55,60,-62.5,60,127.5,-140,-140,127.5,275,,
7,Becca Much,F,SBD,FR-V,56,Raw,2003,,WI,55.22,82.5,90,-102.5,90,45,-50,50,50,-110,120,125,125,265,,
8,Leticia Virgilio,F,SBD,FR-V,56,Raw,2004,,NE,55.41,80,85,90,90,42.5,47.5,-50,47.5,112.5,125,-137.5,125,262.5,,
9,Mercedes Hay,F,SBD,FR-V,56,Raw,2004,Elk Mound High School Powerlifting,WI,53.93,82.5,87.5,-92.5,87.5,52.5,-57.5,57.5,57.5,105,-112.5,-115,105,250,,
10,Maya Kasim,F,SBD,FR-V,56,Raw,2004,,PA,54.95,90,102.5,-110,102.5,52.5,60,-62.5,60,85,-100,-105,85,247.5,,
11,Faith DeLapp,F,SBD,FR-V,56,Raw,2004,,WI,54.62,77.5,87.5,-92.5,87.5,47.5,52.5,55,55,92.5,-97.5,-97.5,92.5,235,,
12,Jada Thompson,F,SBD,FR-V,56,Raw,2005,,WI,55.65,77.5,-85,-85,77.5,42.5,45,-50,45,107.5,112.5,-117.5,112.5,235,,
13,Madelyn Robel,F,SBD,FR-V,56,Raw,2004,,WI,53.92,75,82.5,-87.5,82.5,-45,45,-50,45,92.5,-100,-100,92.5,220,,
1,Alyssa Kwarciany,F,SBD,FR-V,60,Raw,2004,,WI,58.48,120,127.5,132.5,132.5,70,72.5,-75,72.5,137.5,145,152.5,152.5,357.5,,
2,Chloe Suchomel,F,SBD,FR-V,60,Raw,2005,,WI,58.81,102.5,107.5,115,115,80,85,87.5,87.5,145,152.5,-157.5,152.5,355,,
3,Brooke Naegel,F,SBD,FR-V,60,Raw,2006,,SC,59.5,117.5,125,130,130,72.5,77.5,-82.5,77.5,137.5,145,147.5,147.5,355,,
4,Zoe Hensley,F,SBD,FR-V,60,Raw,2004,,MI,59.09,125,-132.5,135,135,62.5,67.5,70,70,132.5,140,145,145,350,,
5,Kenedee Rowen,F,SBD,FR-V,60,Raw,2005,,SD,59.67,120,-125,125,125,62.5,67.5,-70,67.5,130,142.5,147.5,147.5,340,,
6,Greta Aberle,F,SBD,FR-V,60,Raw,2004,Winneconne,WI,58.09,115,-125,125,125,55,60,62.5,62.5,-135,145,147.5,147.5,335,,
7,Auburn Brenner,F,SBD,FR-V,60,Raw,2004,,SD,59.26,-102.5,-102.5,102.5,102.5,52.5,-55,-55,52.5,150,157.5,-170,157.5,312.5,,
8,Judith Hernandez,F,SBD,FR-V,60,Raw,2004,,IL,59.45,-115,115,-125,115,62.5,-67.5,67.5,67.5,125,130,-137.5,130,312.5,,
9,Chloe Nielsen,F,SBD,FR-V,60,Raw,2005,,WI,58.61,95,102.5,105,105,52.5,55,57.5,57.5,130,140,145,145,307.5,,
10,Sydney Hills,F,SBD,FR-V,60,Raw,2004,,IL,58.01,97.5,107.5,115,115,55,60,-62.5,60,115,125,130,130,305,,
11,Cecilia Chung,F,SBD,FR-V,60,Raw,2005,Troy Athens,MI,58.43,107.5,112.5,115,115,-50,50,-55,50,117.5,125,130,130,295,,
12,Sydney Clark,F,SBD,FR-V,60,Raw,2004,,VA,58.51,90,97.5,102.5,102.5,62.5,65,67.5,67.5,105,110,117.5,117.5,287.5,,
13,Valentina Villanueva,F,SBD,FR-V,60,Raw,2007,,CA,59.08,102.5,110,112.5,112.5,47.5,52.5,-55,52.5,105,115,120,120,285,,
14,Carly Keesler,F,SBD,FR-V,60,Raw,2005,Neenah Powerlifting,WI,57.86,90,100,105,105,50,-55,-55,50,110,120,-127.5,120,275,,
15,Zoee Edmonds,F,SBD,FR-V,60,Raw,2005,,PA,58.74,82.5,-87.5,-87.5,82.5,50,55,-57.5,55,117.5,130,135,135,272.5,,
16,Evangeline Hobley,F,SBD,FR-V,60,Raw,2005,Troy Athens,MI,57.58,100,102.5,-105,102.5,57.5,62.5,-65,62.5,-100,100,-110,100,265,,
17,Ariana Meunier,F,SBD,FR-V,60,Raw,2003,Neenah Powerlifting,WI,58.47,80,-85,85,85,52.5,57.5,-60,57.5,110,117.5,122.5,122.5,265,,
18,Greyson Plaski,F,SBD,FR-V,60,Raw,2006,,WI,59.37,80,85,92.5,92.5,42.5,-47.5,-47.5,42.5,110,120,125,125,260,,
19,Megan Dang,F,SBD,FR-V,60,Raw,2003,,NE,59.82,100,-107.5,107.5,107.5,40,45,-47.5,45,95,105,-110,105,257.5,,
20,Indira Jiardini,F,SBD,FR-V,60,Raw,2004,,WI,58.17,85,90,-95,90,-47.5,47.5,-52.5,47.5,105,115,-120,115,252.5,,
21,Natalie Rigney,F,SBD,FR-V,60,Raw,2004,,PA,58.25,70,77.5,80,80,40,45,50,50,107.5,117.5,122.5,122.5,252.5,,
22,Gabriella Ruback,F,SBD,FR-V,60,Raw,2004,,WI,58.79,75,82.5,87.5,87.5,52.5,-60,60,60,85,95,97.5,97.5,245,,
23,Mia Amador,F,SBD,FR-V,60,Raw,2004,,WI,59,-90,90,-102.5,90,47.5,-50,-50,47.5,95,100,105,105,242.5,,
24,Veronica Much,F,SBD,FR-V,60,Raw,2005,,WI,59.24,82.5,85,-90,85,40,42.5,-45,42.5,95,100,-107.5,100,227.5,,
25,Abigael Webber,F,SBD,FR-V,60,Raw,2005,,WI,59.17,65,70,-77.5,70,47.5,-50,-50,47.5,105,-107.5,,105,222.5,,
1,Fayth Analise Ham,F,SBD,FR-V,75,Raw,2004,,TX,71.1,142.5,155,-160,155,65,75,82.5,82.5,167.5,180,-202.5,180,417.5,,
2,Logyn Frapolly,F,SBD,FR-V,75,Raw,2004,,IL,74.68,155,-165,-165,155,67.5,75,-80,75,165,175,-182.5,175,405,,
3,Nevaeh Noonan,F,SBD,FR-V,75,Raw,2005,Osceola High School Powerlifting,WI,73.24,112.5,125,-132.5,125,57.5,62.5,-65,62.5,-160,165,185,185,372.5,,
4,Brooke Ruland,F,SBD,FR-V,75,Raw,2004,,WI,74.87,137.5,-145,-145,137.5,65,-72.5,72.5,72.5,137.5,142.5,-145,142.5,352.5,,
5,Morgan Harwood,F,SBD,FR-V,75,Raw,2005,Neenah Powerlifting,WI,71.23,115,125,-132.5,125,55,60,-62.5,60,142.5,150,155,155,340,,
6,Lahaela Mika,F,SBD,FR-V,75,Raw,2005,,WI,74.89,-102.5,120,-125,120,80,82.5,85,85,115,127.5,132.5,132.5,337.5,,
7,Marista Fraley,F,SBD,FR-V,75,Raw,2005,Neenah Powerlifting,WI,70.53,105,-112.5,112.5,112.5,57.5,-62.5,62.5,62.5,132.5,-140,145,145,320,,
8,Ava Meyer,F,SBD,FR-V,75,Raw,2006,,WI,73.41,112.5,122.5,-130,122.5,50,-52.5,-52.5,50,130,140,-147.5,140,312.5,,
9,Cameren Moore,F,SBD,FR-V,75,Raw,2005,,TX,74.16,117.5,125,132.5,132.5,55,60,62.5,62.5,117.5,-125,-130,117.5,312.5,,
10,Abbigail Zeller,F,SBD,FR-V,75,Raw,2004,Winneconne,WI,71.61,97.5,105,-112.5,105,60,65,67.5,67.5,125,135,-140,135,307.5,,
11,Linnea Darius,F,SBD,FR-V,75,Raw,2003,,MD,70.47,-100,100,110,110,55,60,-62.5,60,125,135,-145,135,305,,
12,Kara Edington,F,SBD,FR-V,75,Raw,2004,Elk Mound High School Powerlifting,WI,72.39,110,117.5,-122.5,117.5,52.5,55,-57.5,55,122.5,-130,130,130,302.5,,
13,Alexius Tonks,F,SBD,FR-V,75,Raw,2003,,MA,70.06,100,107.5,112.5,112.5,55,57.5,60,60,110,120,125,125,297.5,,
14,Angelina Salvino,F,SBD,FR-V,75,Raw,2004,,WI,74.54,100,107.5,-110,107.5,57.5,-62.5,-62.5,57.5,130,-137.5,,130,295,,
15,Hailey Tackman,F,SBD,FR-V,75,Raw,2006,,WI,70.29,115,125,-130,125,45,-50,-50,45,117.5,122.5,-127.5,122.5,292.5,,
16,Christina Johnson,F,SBD,FR-V,75,Raw,2004,Troy Athens,MI,74.07,97.5,-102.5,-105,97.5,60,-62.5,62.5,62.5,120,125,127.5,127.5,287.5,,
17,Olivia Olson,F,SBD,FR-V,75,Raw,2004,Lake Mills High School,WI,74.24,80,90,100,100,50,55,57.5,57.5,112.5,120,127.5,127.5,285,,
18,Kristen Patterson,F,SBD,FR-V,75,Raw,2004,Winneconne,WI,74.35,95,-102.5,-107.5,95,55,57.5,-60,57.5,125,130,-140,130,282.5,,
19,Addison Cegielski,F,SBD,FR-V,75,Raw,2006,,WI,74.33,95,-102.5,-110,95,32.5,37.5,-40,37.5,120,130,-140,130,262.5,,
1,Faith Laudermilch,F,SBD,FR-V,90,Raw,2004,,PA,88.94,145,-147.5,147.5,147.5,70,-72.5,-75,70,167.5,175,187.5,187.5,405,,
2,Hannah Alexander #2,F,SBD,FR-V,90,Raw,2004,Lake Mills High School,WI,89.41,142.5,-150,150,150,75,77.5,-80,77.5,157.5,167.5,177.5,177.5,405,,
3,Elizabeth Dimick,F,SBD,FR-V,90,Raw,2003,,WI,86.38,130,135,140,140,67.5,72.5,-75,72.5,152.5,157.5,162.5,162.5,375,,
4,Piper Alberg,F,SBD,FR-V,90,Raw,2005,Neenah Powerlifting,WI,84.54,-127.5,127.5,140,140,67.5,-72.5,-75,67.5,140,150,160,160,367.5,,
5,Brynn Hundt,F,SBD,FR-V,90,Raw,2004,,WI,85.24,102.5,105,110,110,55,57.5,60,60,132.5,140,-142.5,140,310,,
6,Yasmin Monroy,F,SBD,FR-V,90,Raw,2005,,NE,87.16,115,120,-127.5,120,50,52.5,55,55,112.5,122.5,127.5,127.5,302.5,,
7,Rylie Trams,F,SBD,FR-V,90,Raw,2004,Neenah Powerlifting,WI,89.76,105,-112.5,115,115,50,52.5,55,55,112.5,122.5,-130,122.5,292.5,,
DQ,Jayla Dandridge,F,SBD,FR-V,90,Raw,2004,,TX,85.98,-117.5,127.5,-155,127.5,-67.5,-67.5,-67.5,,,,,,,,
1,Teagan Pahl,F,SBD,FR-V,100,Raw,2004,Elk Mound High School Powerlifting,WI,92.8,140,150,157.5,157.5,60,65,-67.5,65,150,172.5,-185,172.5,395,,
2,Amanda Cruz Santos,F,SBD,FR-V,100,Raw,2004,,WA,96.73,142.5,-150,150,150,-57.5,-57.5,62.5,62.5,145,152.5,162.5,162.5,375,,
3,Megan VanDenHemel,F,SBD,FR-V,100,Raw,2004,,SD,97.47,127.5,-140,-140,127.5,62.5,-67.5,-67.5,62.5,157.5,170,-175,170,360,,
4,Roxanne Vickory,F,SBD,FR-V,100,Raw,2004,Goodrich Girls Power Lifting,MI,94.84,-125,125,-135,125,57.5,62.5,-65,62.5,142.5,155,-162.5,155,342.5,,
5,Sierra Sedlacek,F,SBD,FR-V,100,Raw,2005,,MN,97.02,120,125,-132.5,125,65,70,75,75,122.5,130,-132.5,130,330,,
6,Chelsey Yang,F,SBD,FR-V,100,Raw,2005,Elk Mound High School Powerlifting,WI,94.24,102.5,112.5,-125,112.5,42.5,47.5,50,50,127.5,137.5,147.5,147.5,310,,
1,Samantha Davis #1,F,SBD,FR-V,100+,Raw,2006,,OH,100.76,150,162.5,-172.5,162.5,85,95,-100,95,152.5,175,185,185,442.5,,
2,Elizabeth Cleveland,F,SBD,FR-V,100+,Raw,2004,,WI,104.68,162.5,170,-175,170,70,75,-77.5,75,175,182.5,-200,182.5,427.5,,
3,Payton Weelborg,F,SBD,FR-V,100+,Raw,2004,Hamlin High School,SD,112.29,155,160,172.5,172.5,75,80,85,85,160,-167.5,-167.5,160,417.5,,
4,Madison Newman,F,SBD,FR-V,100+,Raw,2004,,WI,111.3,172.5,-177.5,-177.5,172.5,72.5,75,-80,75,157.5,165,-172.5,165,412.5,,
5,Allison Cook,F,SBD,FR-V,100+,Raw,2005,,WI,123.97,142.5,152.5,160,160,72.5,80,-85,80,150,155,160,160,400,,
6,Lily Fintak,F,SBD,FR-V,100+,Raw,2005,,WI,124.53,147.5,-157.5,157.5,157.5,65,70,72.5,72.5,155,167.5,-172.5,167.5,397.5,,
7,Harli Hadden,F,SBD,FR-V,100+,Raw,2004,Goodrich Girls Power Lifting,MI,108.21,125,135,-142.5,135,57.5,62.5,67.5,67.5,142.5,155,-160,155,357.5,,
8,Charlee Schroeder,F,SBD,FR-V,100+,Raw,2006,,WI,111.11,130,140,-147.5,140,70,75,-80,75,130,142.5,-155,142.5,357.5,,
9,Camren Hericks,F,SBD,FR-V,100+,Raw,2005,,WI,117.07,112.5,125,137.5,137.5,77.5,-82.5,82.5,82.5,120,130,137.5,137.5,357.5,,
10,Carly Reese,F,SBD,FR-V,100+,Raw,2005,,OR,120.35,127.5,-135,137.5,137.5,70,77.5,-80,77.5,127.5,132.5,137.5,137.5,352.5,,
11,Abigail Murphy,F,SBD,FR-V,100+,Raw,2005,Elk Mound High School Powerlifting,WI,113.09,117.5,130,137.5,137.5,57.5,62.5,67.5,67.5,125,145,-157.5,145,350,,
12,Brooke Draskovic,F,SBD,FR-V,100+,Raw,2004,,NE,114.47,135,142.5,150,150,-55,-55,55,55,137.5,145,-157.5,145,350,,
13,Sydney Layland,F,SBD,FR-V,100+,Raw,2004,,WI,109.9,102.5,115,-127.5,115,60,-67.5,70,70,120,130,-137.5,130,315,,
1,Gennie Vitt,F,SBD,FR-V,67.5,Raw,2004,,KS,65.76,145,155,-160,155,80,85,87.5,87.5,142.5,152.5,155,155,397.5,,
2,Hailey Clayton,F,SBD,FR-V,67.5,Raw,2004,,PA,64,140,147.5,155,155,82.5,87.5,90,90,137.5,147.5,-152.5,147.5,392.5,,
3,Diana Yturbe,F,SBD,FR-V,67.5,Raw,2004,,NJ,65.44,125,-132.5,132.5,132.5,70,75,-77.5,75,162.5,-177.5,-190,162.5,370,,
4,Hannah Stahmann,F,SBD,FR-V,67.5,Raw,2003,Winneconne,WI,65.83,122.5,127.5,130,130,62.5,65,-67.5,65,152.5,165,172.5,172.5,367.5,,
5,Annabel He,F,SBD,FR-V,67.5,Raw,2004,,CA,65.1,122.5,132.5,137.5,137.5,62.5,65,-67.5,65,145,150,-152.5,150,352.5,,
6,Paige Kudej,F,SBD,FR-V,67.5,Raw,2003,,IA,67.12,120,122.5,132.5,132.5,67.5,70,-72.5,70,-150,150,-152.5,150,352.5,,
7,Ellie Koeniguer,F,SBD,FR-V,67.5,Raw,2004,,MN,65.99,-115,115,125,125,72.5,77.5,-80,77.5,125,135,142.5,142.5,345,,
8,Brooke DeMaggio,F,SBD,FR-V,67.5,Raw,2004,,NJ,66.84,102.5,110,115,115,70,72.5,75,75,110,120,125,125,315,,
9,Meghann Christian,F,SBD,FR-V,67.5,Raw,2004,,WI,66.88,105,112.5,-115,112.5,57.5,60,-62.5,60,137.5,140,142.5,142.5,315,,
10,Kayla Prim,F,SBD,FR-V,67.5,Raw,2003,,MI,64.94,105,110,-117.5,110,55,-57.5,-57.5,55,125,137.5,145,145,310,,
11,Kyah Fischer,F,SBD,FR-V,67.5,Raw,2004,Elk Mound High School Powerlifting,WI,67.45,92.5,100,105,105,47.5,52.5,-55,52.5,-120,125,137.5,137.5,295,,
12,Madison Gingras,F,SBD,FR-V,67.5,Raw,2004,,WI,65.75,-102.5,102.5,-112.5,102.5,52.5,-57.5,57.5,57.5,125,130,132.5,132.5,292.5,,
13,Lillian Kuske,F,SBD,FR-V,67.5,Raw,2004,,WI,63.69,87.5,95,-102.5,95,55,-60,-60,55,130,140,-147.5,140,290,,
14,Nellie Dunlap,F,SBD,FR-V,67.5,Raw,2005,,WI,64,-97.5,97.5,102.5,102.5,47.5,55,57.5,57.5,122.5,130,-135,130,290,,
15,Emma Leonard,F,SBD,FR-V,67.5,Raw,2004,Troy Athens,MI,64.13,100,107.5,-110,107.5,52.5,55,57.5,57.5,115,125,-127.5,125,290,,
16,Kaylee Palladino,F,SBD,FR-V,67.5,Raw,2005,,MA,64.89,97.5,105,-107.5,105,47.5,50,52.5,52.5,120,127.5,132.5,132.5,290,,
17,Isabella Harmer,F,SBD,FR-V,67.5,Raw,2003,Elk Mound High School Powerlifting,WI,63.37,85,92.5,100,100,55,-57.5,-57.5,55,115,-122.5,127.5,127.5,282.5,,
18,Allyson Wolfe,F,SBD,FR-V,67.5,Raw,2004,,PA,64.14,97.5,102.5,107.5,107.5,47.5,52.5,-55,52.5,107.5,115,120,120,280,,
19,Madelyn Pritzl,F,SBD,FR-V,67.5,Raw,2004,Neenah Powerlifting,WI,65.23,77.5,85,87.5,87.5,50,52.5,-55,52.5,122.5,132.5,137.5,137.5,277.5,,
20,Madyson Janichek,F,SBD,FR-V,67.5,Raw,2005,Neenah Powerlifting,WI,61.07,90,95,97.5,97.5,60,-65,-65,60,110,117.5,-122.5,117.5,275,,
21,Lauren Tears,F,SBD,FR-V,67.5,Raw,2005,,WI,65.25,85,90,92.5,92.5,40,45,-47.5,45,120,130,137.5,137.5,275,,
22,Brooke Halberg,F,SBD,FR-V,67.5,Raw,2004,,WI,64.72,102.5,-107.5,-110,102.5,-57.5,57.5,-62.5,57.5,102.5,107.5,112.5,112.5,272.5,,
23,Lee Da Yang,F,SBD,FR-V,67.5,Raw,2005,,WI,62.71,100,105,112.5,112.5,42.5,-47.5,47.5,47.5,87.5,97.5,110,110,270,,
24,Gineva Reese,F,SBD,FR-V,67.5,Raw,2005,,PA,65.34,90,97.5,102.5,102.5,47.5,52.5,-60,52.5,100,110,115,115,270,,
25,Lakely Kloetzke,F,SBD,FR-V,67.5,Raw,2005,Laconia High School,WI,66.71,-97.5,-100,100,100,52.5,-57.5,-57.5,52.5,-117.5,117.5,-125,117.5,270,,
26,Isabelle Jeffrey,F,SBD,FR-V,67.5,Raw,2004,,MI,64.39,87.5,-92.5,92.5,92.5,42.5,47.5,52.5,52.5,112.5,122.5,-132.5,122.5,267.5,,
27,Ashley Ebben,F,SBD,FR-V,67.5,Raw,2004,,WI,66.18,85,95,-100,95,45,50,-55,50,102.5,112.5,-117.5,112.5,257.5,,
28,Casyn Little,F,SBD,FR-V,67.5,Raw,2004,,TX,63.11,95,-102.5,-102.5,95,47.5,52.5,-55,52.5,95,-102.5,102.5,102.5,250,,
29,Stella Mategrano,F,SBD,FR-V,67.5,Raw,2004,,VA,64.49,92.5,97.5,-102.5,97.5,50,52.5,-55,52.5,90,97.5,-102.5,97.5,247.5,,
DQ,Madison Ensminger,F,SBD,FR-V,67.5,Raw,2004,,AL,63.34,-110,-115,-115,,-67.5,-72.5,-72.5,,,,,,,,
1,Abby Hargrove,F,SBD,FR-V,82.5,Raw,2004,,KY,80.95,-137.5,-145,145,145,65,70,-75,70,137.5,147.5,152.5,152.5,367.5,,
2,Madelynne OBrien,F,SBD,FR-V,82.5,Raw,2003,,VA,79.45,127.5,130,-132.5,130,72.5,-75,-75,72.5,152.5,-155,-155,152.5,355,,
3,Breslyn Sikkenga,F,SBD,FR-V,82.5,Raw,2005,,MI,81.33,102.5,112.5,120,120,65,70,-75,70,135,145,152.5,152.5,342.5,,
4,Jillian Whiting,F,SBD,FR-V,82.5,Raw,2003,,WA,76.02,115,120,-127.5,120,65,70,72.5,72.5,130,140,147.5,147.5,340,,
5,Sabin Steinhoff,F,SBD,FR-V,82.5,Raw,2004,,WI,80.31,130,137.5,140,140,57.5,-62.5,-62.5,57.5,135,142.5,-150,142.5,340,,
6,Olivia Hiltner,F,SBD,FR-V,82.5,Raw,2005,,WI,80.36,110,115,-117.5,115,67.5,72.5,-75,72.5,142.5,150,-155,150,337.5,,
7,Myah Wenzel,F,SBD,FR-V,82.5,Raw,2006,Neenah Powerlifting,WI,79.51,117.5,125,-132.5,125,52.5,-57.5,-57.5,52.5,132.5,145,150,150,327.5,,
8,Alissa Barthuly,F,SBD,FR-V,82.5,Raw,2005,Laconia High School,WI,79.75,107.5,115,117.5,117.5,50,57.5,60,60,135,145,-150,145,322.5,,
9,Caroline Hensel,F,SBD,FR-V,82.5,Raw,2006,Laconia High School,WI,77.2,105,110,112.5,112.5,52.5,57.5,-60,57.5,125,137.5,-142.5,137.5,307.5,,
10,Morgan Iverson,F,SBD,FR-V,82.5,Raw,2006,,WI,77.65,100,107.5,-112.5,107.5,57.5,-62.5,-62.5,57.5,-132.5,132.5,-155,132.5,297.5,,
11,Jerika Harris,F,SBD,FR-V,82.5,Raw,2005,,IL,81.32,100,107.5,117.5,117.5,62.5,65,-70,65,115,-120,-120,115,297.5,,
12,Katherine Bettag,F,SBD,FR-V,82.5,Raw,2003,,WI,78.77,92.5,102.5,-112.5,102.5,50,-55,55,55,117.5,130,-142.5,130,287.5,,
13,Haley Minnick,F,SBD,FR-V,82.5,Raw,2004,,MD,80.94,90,100,102.5,102.5,52.5,-57.5,57.5,57.5,115,127.5,-140,127.5,287.5,,
1,Logan Winiecki,M,SBD,M-JV,75,Single-ply,2006,,WI,71.03,145,152.5,-160,152.5,72.5,80,-85,80,155,162.5,-170,162.5,395,,
1,Dayvon Williamson,M,SBD,M-JV,82.5,Single-ply,2005,,PA,80.25,190,202.5,212.5,212.5,87.5,95,-102.5,95,177.5,-190,-200,177.5,485,,
1,Derrick Dupre,M,SBD,M-V,56,Single-ply,2004,,LA,55.59,130,-137.5,145,145,-100,100,-102.5,100,150,162.5,170,170,415,,
1,Donovan Sinthasomphone,M,SBD,M-V,60,Single-ply,2004,Oak Creek Powerlifting,WI,58.77,150,-155,-155,150,82.5,85,-87.5,85,167.5,-177.5,-177.5,167.5,402.5,,
1,James Marsini,M,SBD,M-V,75,Single-ply,2003,,PA,74.51,220,-230,230,230,117.5,127.5,-130,127.5,180,190,192.5,192.5,550,,
2,Matthew Nguyen,M,SBD,M-V,75,Single-ply,2005,Oak Creek Powerlifting,WI,74.61,192.5,200,205,205,100,107.5,-110,107.5,190,200,205,205,517.5,,
1,Keegan Pellegrin,M,SBD,M-V,90,Single-ply,2004,,LA,86.86,247.5,-262.5,272.5,272.5,-135,135,142.5,142.5,250,-275,-275,250,665,,
1,Logan Gillespie,M,SBD,M-V,100,Single-ply,2005,,WI,97.28,260,-277.5,-277.5,260,137.5,142.5,147.5,147.5,215,-232.5,240,240,647.5,,
1,Brett Sacia,M,SBD,M-V,125,Single-ply,2004,,WI,110.33,242.5,-260,262.5,262.5,115,142.5,150,150,237.5,-242.5,-242.5,237.5,650,,
1,Jacob Pemberton,M,SBD,M-V,140+,Single-ply,2005,,WI,140.46,267.5,-285,285,285,155,160,167.5,167.5,225,235,-240,235,687.5,,
1,Jose Hernandez #37,M,SBD,M-V,82.5,Single-ply,2003,,WI,81.5,215,227.5,240,240,107.5,115,122.5,122.5,215,227.5,-237.5,227.5,590,,
2,Ethan Caruso,M,SBD,M-V,82.5,Single-ply,2004,,PA,79.96,200,215,-220,215,-97.5,100,110,110,215,220,-232.5,220,545,,
1,Dushaun LeGrand,M,SBD,MR-JV,52,Raw,2006,Elk Mound High School Powerlifting,WI,51.45,75,80,85,85,55,60,62.5,62.5,95,105,110,110,257.5,,
2,Brandon Manthey,M,SBD,MR-JV,52,Raw,2006,,WI,48.69,75,87.5,-92.5,87.5,40,45,-47.5,45,95,105,-115,105,237.5,,
3,Andy Flores,M,SBD,MR-JV,52,Raw,2007,,WI,51.16,35,45,47.5,47.5,42.5,47.5,-52.5,47.5,70,75,80,80,175,,
1,Wiley Philleo,M,SBD,MR-JV,56,Raw,2007,,WY,55.85,102.5,110,-122.5,110,55,62.5,72.5,72.5,102.5,117.5,-140,117.5,300,,
2,Gabe Fenton,M,SBD,MR-JV,56,Raw,2007,Elk Mound High School Powerlifting,WI,55.54,92.5,97.5,-102.5,97.5,50,52.5,55,55,120,130,-135,130,282.5,,
1,Maddox Rampen,M,SBD,MR-JV,60,Raw,2008,,PA,58.96,120,130,135,135,62.5,67.5,70,70,150,160,165,165,370,,
2,Will Heineman,M,SBD,MR-JV,60,Raw,2005,,SD,59.25,-127.5,132.5,142.5,142.5,67.5,70,-75,70,142.5,152.5,-160,152.5,365,,
3,James McElroy,M,SBD,MR-JV,60,Raw,2007,,WI,58.31,112.5,120,-127.5,120,72.5,77.5,80,80,145,155,-165,155,355,,
4,Domenic Peters,M,SBD,MR-JV,60,Raw,2006,,PA,58.14,117.5,125,-132.5,125,70,-77.5,-77.5,70,-142.5,142.5,-147.5,142.5,337.5,,
5,Josh Braker,M,SBD,MR-JV,60,Raw,2006,Elk Mound High School Powerlifting,WI,59.09,82.5,90,95,95,57.5,62.5,70,70,135,145,152.5,152.5,317.5,,
1,Daniel Jackson #2,M,SBD,MR-JV,75,Raw,2005,,PA,68.09,155,165,170,170,105,112.5,-117.5,112.5,-205,215,-220,215,497.5,,
2,Sam Pangan,M,SBD,MR-JV,75,Raw,2005,,NH,69.55,145,160,165,165,72.5,82.5,85,85,200,212.5,220,220,470,,
3,Luke Chappin,M,SBD,MR-JV,75,Raw,2006,,NC,70.88,165,-175,-175,165,87.5,92.5,-95,92.5,177.5,182.5,195,195,452.5,,
4,Broden Thompson,M,SBD,MR-JV,75,Raw,2005,,NC,69.45,145,165,170,170,90,102.5,-107.5,102.5,150,167.5,172.5,172.5,445,,
5,Ashton Post,M,SBD,MR-JV,75,Raw,2006,,WI,71.74,135,145,150,150,75,82.5,-85,82.5,167.5,172.5,180,180,412.5,,
6,Ty Felle,M,SBD,MR-JV,75,Raw,2006,,WI,71.95,140,147.5,157.5,157.5,75,80,-82.5,80,160,172.5,175,175,412.5,,
7,Jake Campbell,M,SBD,MR-JV,75,Raw,2006,,WI,71.81,135,145,155,155,77.5,82.5,-90,82.5,150,160,170,170,407.5,,
8,Yanni Galanakis,M,SBD,MR-JV,75,Raw,2006,,PA,72.3,140,147.5,150,150,70,77.5,82.5,82.5,145,152.5,157.5,157.5,390,,
9,Myles Knott,M,SBD,MR-JV,75,Raw,2007,,PA,72.43,120,130,-135,130,85,92.5,95,95,132.5,145,-150,145,370,,
10,Elijah Sorenson,M,SBD,MR-JV,75,Raw,2005,Elk Mound High School Powerlifting,WI,70.57,102.5,107.5,112.5,112.5,67.5,72.5,77.5,77.5,135,150,165,165,355,,
11,Greyson Delander,M,SBD,MR-JV,75,Raw,2006,,WI,72.48,117.5,125,-130,125,75,80,82.5,82.5,130,140,147.5,147.5,355,,
12,Daniel Allen,M,SBD,MR-JV,75,Raw,2007,,WI,73.52,110,-117.5,-117.5,110,77.5,-82.5,-82.5,77.5,145,155,157.5,157.5,345,,
13,Shane Guerrero,M,SBD,MR-JV,75,Raw,2006,,MT,73.66,-110,115,120,120,65,67.5,-72.5,67.5,127.5,135,142.5,142.5,330,,
DQ,Brandon Esser,M,SBD,MR-JV,75,Raw,2005,,WI,72.51,130,145,-150,145,70,-75,-75,70,-185,-185,-185,,,,
1,Owen Haseleu,M,SBD,MR-JV,90,Raw,2005,,WI,88.04,192.5,205,215,215,120,125,130,130,170,180,187.5,187.5,532.5,,
2,Elias Mank,M,SBD,MR-JV,90,Raw,2005,,AK,87.28,180,192.5,-202.5,192.5,85,90,100,100,220,235,-240,235,527.5,,
3,Donte Lester,M,SBD,MR-JV,90,Raw,2005,,MI,89.43,165,180,192.5,192.5,100,107.5,112.5,112.5,185,200,215,215,520,,
4,Austin Bartek,M,SBD,MR-JV,90,Raw,2007,,OK,86.76,165,180,-192.5,180,107.5,120,-125,120,197.5,207.5,217.5,217.5,517.5,,
5,Sam Harvey #2,M,SBD,MR-JV,90,Raw,2005,,PA,86.64,167.5,175,180,180,112.5,120,125,125,190,200,205,205,510,,
6,Cole Ivarson,M,SBD,MR-JV,90,Raw,2005,,WI,87.25,-180,180,187.5,187.5,102.5,107.5,112.5,112.5,182.5,192.5,-200,192.5,492.5,,
7,Rex Polly,M,SBD,MR-JV,90,Raw,2005,,GA,88.31,162.5,-172.5,-175,162.5,112.5,120,125,125,170,185,200,200,487.5,,
8,Daniel Foley #1,M,SBD,MR-JV,90,Raw,2005,,MD,86.63,155,165,172.5,172.5,105,107.5,110,110,185,195,-200,195,477.5,,
9,Gabe Bibawi,M,SBD,MR-JV,90,Raw,2005,,TX,88.8,132.5,-142.5,142.5,142.5,75,82.5,87.5,87.5,175,187.5,195,195,425,,
10,Adam Kleinhans,M,SBD,MR-JV,90,Raw,2007,,WI,86.49,115,127.5,137.5,137.5,70,77.5,82.5,82.5,137.5,152.5,157.5,157.5,377.5,,
1,Francis O'Malley,M,SBD,MR-JV,100,Raw,2005,,MN,96.38,222.5,232.5,-237.5,232.5,162.5,165,-170,165,260,270,-280,270,667.5,,
2,Cristopf Atkinson,M,SBD,MR-JV,100,Raw,2006,,WY,92.53,167.5,172.5,177.5,177.5,95,102.5,107.5,107.5,185,192.5,-200,192.5,477.5,,
3,Dylan Massores,M,SBD,MR-JV,100,Raw,2006,,CT,90.66,142.5,152.5,160,160,105,112.5,-117.5,112.5,167.5,177.5,-187.5,177.5,450,,
4,Andres Carrillo,M,SBD,MR-JV,100,Raw,2007,Elk Mound High School Powerlifting,WI,98.8,137.5,147.5,155,155,82.5,87.5,90,90,142.5,152.5,167.5,167.5,412.5,,
5,Landon Cassellius,M,SBD,MR-JV,100,Raw,2005,Elk Mound High School Powerlifting,WI,96.89,-130,130,-137.5,130,60,65,-70,65,-162.5,170,190,190,385,,
1,Blake Wendt,M,SBD,MR-JV,110,Raw,2006,,IL,106.9,192.5,210,220,220,122.5,135,140,140,210,220,227.5,227.5,587.5,,
2,Bryce Ruland,M,SBD,MR-JV,110,Raw,2006,Waterford Union High School,WI,103.97,-190,190,205,205,115,125,-132.5,125,227.5,237.5,-257.5,237.5,567.5,,
3,Cristhian Rodriguez,M,SBD,MR-JV,110,Raw,2005,Hamlin High School,SD,107.33,207.5,220,-225,220,105,110,115,115,220,230,-237.5,230,565,,
4,Brandon Lezinski,M,SBD,MR-JV,110,Raw,2006,,PA,107.19,155,-165,170,170,85,92.5,97.5,97.5,157.5,167.5,-180,167.5,435,,
5,Marshal Gordon,M,SBD,MR-JV,110,Raw,2006,,PA,107.27,155,162.5,170,170,92.5,-97.5,-97.5,92.5,140,147.5,155,155,417.5,,
1,Wyatt Stellrecht,M,SBD,MR-JV,125,Raw,2006,,WI,123.55,207.5,215,227.5,227.5,115,120,125,125,207.5,215,222.5,222.5,575,,
2,Robby Kedrowicz,M,SBD,MR-JV,125,Raw,2007,Waterford Union High School,WI,118.48,197.5,205,-222.5,205,115,-120,-120,115,185,200,-207.5,200,520,,
3,Chad Dayharsh Jr,M,SBD,MR-JV,125,Raw,2006,,MI,120.04,175,187.5,-195,187.5,112.5,120,125,125,190,-205,205,205,517.5,,
4,Johnathan Mullenberg,M,SBD,MR-JV,125,Raw,2006,,WI,123.37,-165,-165,165,165,115,120,-125,120,167.5,175,-185,175,460,,
1,Kayden Kutil,M,SBD,MR-JV,140,Raw,2005,Hamlin High School,SD,131.41,175,180,185,185,75,77.5,80,80,175,-182.5,-182.5,175,440,,
2,John Romnek,M,SBD,MR-JV,140,Raw,2004,,WI,135.17,137.5,147.5,157.5,157.5,85,92.5,-97.5,92.5,175,-180,-180,175,425,,
3,Devan Brossman,M,SBD,MR-JV,140,Raw,2005,,WI,126.24,137.5,145,152.5,152.5,70,-77.5,-77.5,70,140,147.5,157.5,157.5,380,,
1,Dayne Laney,M,SBD,MR-JV,67.5,Raw,2006,Elk Mound High School Powerlifting,WI,65.67,130,140,-145,140,80,87.5,92.5,92.5,160,170,-175,170,402.5,,
2,Ryan Guadagno,M,SBD,MR-JV,67.5,Raw,2005,,IN,65.57,140,150,157.5,157.5,80,85,-90,85,140,150,-157.5,150,392.5,,
3,Kyle Steiner,M,SBD,MR-JV,67.5,Raw,2005,,PA,67.09,142.5,152.5,160,160,62.5,70,75,75,-140,150,-160,150,385,,
4,Cael Sandberg,M,SBD,MR-JV,67.5,Raw,2006,,VA,65.23,-130,-130,130,130,80,85,87.5,87.5,-142.5,142.5,155,155,372.5,,
5,Steven Severson,M,SBD,MR-JV,67.5,Raw,2006,Elk Mound High School Powerlifting,WI,63.89,117.5,122.5,127.5,127.5,70,75,-80,75,137.5,-150,160,160,362.5,,
6,Sawyer Trowbridge,M,SBD,MR-JV,67.5,Raw,2006,Hamlin High School,SD,62.11,105,115,122.5,122.5,75,80,87.5,87.5,142.5,147.5,150,150,360,,
7,Richard Comstock,M,SBD,MR-JV,67.5,Raw,2005,,VA,66.62,132.5,-145,-145,132.5,70,77.5,82.5,82.5,122.5,140,-150,140,355,,
8,Nicholas Katzman,M,SBD,MR-JV,67.5,Raw,2006,,WI,65.63,110,120,130,130,60,65,-75,65,135,145,152.5,152.5,347.5,,
9,James Rabasco,M,SBD,MR-JV,67.5,Raw,2006,,MN,62.06,107.5,117.5,122.5,122.5,65,75,77.5,77.5,127.5,140,142.5,142.5,342.5,,
10,Cody Tiedeman,M,SBD,MR-JV,67.5,Raw,2007,,MI,63.51,130,-135,-135,130,70,75,-77.5,75,135,-137.5,,135,340,,
11,Caydan Johnston,M,SBD,MR-JV,67.5,Raw,2007,,WI,65.15,115,122.5,-132.5,122.5,62.5,65,72.5,72.5,130,140,145,145,340,,
12,Brock Pentasuglio,M,SBD,MR-JV,67.5,Raw,2006,,PA,63.2,115,122.5,-130,122.5,65,70,-72.5,70,117.5,-122.5,,117.5,310,,
13,Barak Knight,M,SBD,MR-JV,67.5,Raw,2006,Waterford Union High School,WI,65.75,90,97.5,-102.5,97.5,57.5,60,62.5,62.5,125,130,-140,130,290,,
1,Jakweli Gist,M,SBD,MR-JV,82.5,Raw,2005,,MO,80.98,217.5,-232.5,232.5,232.5,145,155,-157.5,155,227.5,247.5,257.5,257.5,645,,
2,Hayden Brennan,M,SBD,MR-JV,82.5,Raw,2005,,WI,80.34,175,-185,185,185,102.5,107.5,112.5,112.5,207.5,215,-227.5,215,512.5,,
3,Luke Jerstad,M,SBD,MR-JV,82.5,Raw,2006,,SD,80.34,167.5,175,182.5,182.5,100,105,-110,105,180,185,195,195,482.5,,
4,Brady Porter,M,SBD,MR-JV,82.5,Raw,2006,,MI,80.08,160,-175,-175,160,107.5,112.5,117.5,117.5,182.5,197.5,-205,197.5,475,,
5,Keith Stroud,M,SBD,MR-JV,82.5,Raw,2006,,TN,80.83,157.5,-162.5,162.5,162.5,102.5,107.5,-110,107.5,185,190,-195,190,460,,
6,Landen Rieks,M,SBD,MR-JV,82.5,Raw,2006,,WI,80.46,165,175,185,185,90,95,-100,95,-165,165,-172.5,165,445,,
7,Holden Persefield,M,SBD,MR-JV,82.5,Raw,2006,,TX,78.27,135,145,155,155,97.5,105,-110,105,152.5,162.5,-172.5,162.5,422.5,,
8,Colin Mosser,M,SBD,MR-JV,82.5,Raw,2006,,WI,80.94,142.5,-150,-160,142.5,102.5,-107.5,-107.5,102.5,152.5,-157.5,-157.5,152.5,397.5,,
9,David Satloff,M,SBD,MR-JV,82.5,Raw,2007,,MD,79.19,132.5,142.5,-150,142.5,85,87.5,90,90,155,-172.5,-172.5,155,387.5,,
10,Marik McKenna,M,SBD,MR-JV,82.5,Raw,2005,Pius XI,WI,82.24,110,117.5,-132.5,117.5,62.5,67.5,-72.5,67.5,180,195,-205,195,380,,
11,Preston Smith,M,SBD,MR-JV,82.5,Raw,2007,Elk Mound High School Powerlifting,WI,81.89,120,127.5,-135,127.5,75,80,85,85,110,122.5,132.5,132.5,345,,
12,Jeffery Goodman III,M,SBD,MR-JV,82.5,Raw,2007,Pius XI,WI,81.61,-110,110,122.5,122.5,62.5,67.5,-75,67.5,142.5,-152.5,-155,142.5,332.5,,
1,Muluken Rucks,M,SBD,MR-V,52,Raw,2004,,WI,51.17,130,140,-167.5,140,77.5,82.5,-90,82.5,150,155,-170,155,377.5,,
2,Lukas Quinones,M,SBD,MR-V,52,Raw,2005,Neenah Powerlifting,WI,49.84,105,115,-120,115,67.5,72.5,-77.5,72.5,115,125,132.5,132.5,320,,
3,Alex Duel,M,SBD,MR-V,52,Raw,2006,Winneconne,WI,51.51,87.5,97.5,102.5,102.5,65,72.5,-77.5,72.5,125,137.5,140,140,315,,
4,Evan Cardoza,M,SBD,MR-V,52,Raw,2007,Neenah Powerlifting,WI,51.63,-92.5,92.5,100,100,55,57.5,-60,57.5,112.5,125,132.5,132.5,290,,
5,Gavin Boucher,M,SBD,MR-V,52,Raw,2007,,WI,50.51,65,75,80,80,45,52.5,55,55,90,100,110,110,245,,
1,James Castillo,M,SBD,MR-V,56,Raw,2005,,WI,54.78,142.5,145,147.5,147.5,87.5,92.5,-95,92.5,-175,177.5,185,185,425,,
2,Kenny Ford,M,SBD,MR-V,56,Raw,2004,,KS,55.06,125,130,137.5,137.5,65,70,75,75,185,190,-195,190,402.5,,
3,Freddy Vizcaya-Garcia,M,SBD,MR-V,56,Raw,2004,,SD,56,-132.5,132.5,-137.5,132.5,75,-77.5,77.5,77.5,162.5,172.5,-182.5,172.5,382.5,,
4,Ty Anderson,M,SBD,MR-V,56,Raw,2004,Neenah Powerlifting,WI,55.37,97.5,107.5,112.5,112.5,57.5,62.5,65,65,150,162.5,172.5,172.5,350,,
5,Devin Balts,M,SBD,MR-V,56,Raw,2004,Elk Mound High School Powerlifting,WI,54.87,107.5,117.5,122.5,122.5,60,65,67.5,67.5,135,142.5,145,145,335,,
6,Cody Duel,M,SBD,MR-V,56,Raw,2004,Winneconne,WI,55.93,110,122.5,130,130,70,75,77.5,77.5,102.5,117.5,127.5,127.5,335,,
7,Austin Howard,M,SBD,MR-V,56,Raw,2003,,WI,56,92.5,95,97.5,97.5,57.5,60,62.5,62.5,115,122.5,130,130,290,,
8,Carter Downs,M,SBD,MR-V,56,Raw,2007,Neenah Powerlifting,WI,54.93,-87.5,-92.5,92.5,92.5,47.5,50,52.5,52.5,120,130,-140,130,275,,
1,Keanu Duel,M,SBD,MR-V,60,Raw,2005,Laconia High School,WI,59.95,142.5,155,162.5,162.5,62.5,70,-75,70,-177.5,177.5,187.5,187.5,420,,
2,Joshua Rogers,M,SBD,MR-V,60,Raw,2004,,WI,59.57,137.5,147.5,155,155,95,102.5,-105,102.5,140,152.5,160,160,417.5,,
3,Timothy Story,M,SBD,MR-V,60,Raw,2005,,WI,59.2,-130,137.5,-142.5,137.5,82.5,87.5,-90,87.5,167.5,175,-177.5,175,400,,
4,Ayden Self,M,SBD,MR-V,60,Raw,2008,,TX,59.48,107.5,115,127.5,127.5,72.5,77.5,82.5,82.5,132.5,147.5,160,160,370,,
5,Francis Zeller,M,SBD,MR-V,60,Raw,2005,Winneconne,WI,59.12,110,115,122.5,122.5,75,77.5,-80,77.5,150,160,-162.5,160,360,,
6,Cason Pederson,M,SBD,MR-V,60,Raw,2003,Elk Mound High School Powerlifting,WI,59.49,115,122.5,-127.5,122.5,67.5,-72.5,72.5,72.5,152.5,-157.5,-157.5,152.5,347.5,,
7,Cole Vargo,M,SBD,MR-V,60,Raw,2004,,WI,59.7,100,-115,117.5,117.5,60,67.5,72.5,72.5,130,137.5,155,155,345,,
8,Colin Stecker,M,SBD,MR-V,60,Raw,2004,,WI,59.17,110,125,127.5,127.5,62.5,67.5,-70,67.5,135,-145,,135,330,,
9,Daniel Gordon,M,SBD,MR-V,60,Raw,2004,,WI,59.09,100,107.5,-115,107.5,77.5,82.5,-87.5,82.5,112.5,122.5,137.5,137.5,327.5,,
10,Alex Woodford,M,SBD,MR-V,60,Raw,2004,Elk Mound High School Powerlifting,WI,59.31,87.5,95,102.5,102.5,55,60,62.5,62.5,132.5,145,-155,145,310,,
1,Brady Flasch,M,SBD,MR-V,75,Raw,2003,,WI,74.32,212.5,225,232.5,232.5,140,145,150,150,250,262.5,-275,262.5,645,,
2,Nathan Beeler,M,SBD,MR-V,75,Raw,2003,,IA,74.01,210,222.5,-230,222.5,125,130,-132.5,130,250,260,-265,260,612.5,,
3,Tucker Thompson,M,SBD,MR-V,75,Raw,2003,,NC,72.86,190,-212.5,220,220,115,132.5,135,135,192.5,215,227.5,227.5,582.5,,
4,Clark Whitefield,M,SBD,MR-V,75,Raw,2004,,NY,73.84,197.5,207.5,215,215,135,142.5,-152.5,142.5,210,217.5,222.5,222.5,580,,
5,Lambros Koutsfetsoulis,M,SBD,MR-V,75,Raw,2003,,NJ,73.4,197.5,210,215,215,107.5,112.5,-117.5,112.5,230,245,-257.5,245,572.5,,
6,Tyler Robles,M,SBD,MR-V,75,Raw,2004,,AL,74.27,192.5,200,-207.5,200,117.5,125,-130,125,-237.5,245,-260,245,570,,
7,Billy Perry,M,SBD,MR-V,75,Raw,2003,,MS,73.84,180,190,195,195,-125,-125,125,125,217.5,227.5,235,235,555,,
8,Corey Riley,M,SBD,MR-V,75,Raw,2003,,TX,74.45,190,200,-210,200,115,122.5,127.5,127.5,225,-240,-240,225,552.5,,
9,Carter Petersen,M,SBD,MR-V,75,Raw,2003,,SD,74.27,195,205,215,215,115,120,122.5,122.5,187.5,197.5,-207.5,197.5,535,,
10,Jose Reveles,M,SBD,MR-V,75,Raw,2003,,MN,72.76,187.5,-192.5,195,195,120,127.5,-132.5,127.5,210,-217.5,-217.5,210,532.5,,
11,Sebastian Kempf,M,SBD,MR-V,75,Raw,2004,,WI,74.6,190,200,-205,200,110,120,-127.5,120,190,202.5,210,210,530,,
12,Klayton Matthews,M,SBD,MR-V,75,Raw,2005,,WV,74.65,190,-195,-195,190,-122.5,127.5,-130,127.5,197.5,205,-207.5,205,522.5,,
13,Keegan Wenande,M,SBD,MR-V,75,Raw,2003,,SD,73.67,170,180,185,185,102.5,107.5,112.5,112.5,195,212.5,-220,212.5,510,,
14,Bryan Fura,M,SBD,MR-V,75,Raw,2003,,WI,71.42,170,180,-187.5,180,107.5,-112.5,112.5,112.5,202.5,212.5,-220,212.5,505,,
15,Cole Barclay,M,SBD,MR-V,75,Raw,2004,,TX,74.11,157.5,167.5,-172.5,167.5,97.5,102.5,-105,102.5,-202.5,202.5,220,220,490,,
16,Rory Hemp,M,SBD,MR-V,75,Raw,2004,Winneconne,WI,74.69,165,172.5,177.5,177.5,92.5,97.5,102.5,102.5,197.5,205,-207.5,205,485,,
17,Cade Deal,M,SBD,MR-V,75,Raw,2004,,WI,74.32,167.5,175,180,180,100,105,107.5,107.5,182.5,-192.5,192.5,192.5,480,,
18,Trey Barnes,M,SBD,MR-V,75,Raw,2003,,WI,73.51,160,-172.5,-172.5,160,95,105,-112.5,105,200,210,-212.5,210,475,,
19,Mason Moreno,M,SBD,MR-V,75,Raw,2004,,IL,72.73,152.5,155,,155,90,97.5,-100,97.5,-197.5,202.5,215,215,467.5,,
20,Ryan Graber,M,SBD,MR-V,75,Raw,2004,,TX,72.99,160,-170,170,170,82.5,87.5,92.5,92.5,192.5,205,-210,205,467.5,,
21,Vincent Cardoza,M,SBD,MR-V,75,Raw,2006,Neenah Powerlifting,WI,74.64,145,155,165,165,80,85,87.5,87.5,185,197.5,210,210,462.5,,
22,Joseph Pine,M,SBD,MR-V,75,Raw,2004,,MI,71.24,135,147.5,155,155,95,100,105,105,-167.5,180,190,190,450,,
23,Jon Burchette,M,SBD,MR-V,75,Raw,2003,,NH,73.78,-165,170,-175,170,97.5,-102.5,-102.5,97.5,182.5,-190,-190,182.5,450,,
24,William McDermott,M,SBD,MR-V,75,Raw,2005,,WI,74.68,-145,145,-160,145,82.5,92.5,-97.5,92.5,187.5,212.5,-222.5,212.5,450,,
25,Kyle Haas,M,SBD,MR-V,75,Raw,2004,,WI,70.24,142.5,152.5,162.5,162.5,75,82.5,-87.5,82.5,190,202.5,-210,202.5,447.5,,
26,Brady Graceffa,M,SBD,MR-V,75,Raw,2003,,MA,73.25,122.5,135,140,140,100,107.5,-110,107.5,175,190,197.5,197.5,445,,
27,Nolan Mrotek,M,SBD,MR-V,75,Raw,2004,Neenah Powerlifting,WI,73.09,142.5,-150,150,150,82.5,-85,-85,82.5,197.5,210,-220,210,442.5,,
28,Ethan Cordero,M,SBD,MR-V,75,Raw,2004,,WI,72.45,140,150,-160,150,77.5,85,-90,85,185,195,205,205,440,,
29,Anthony Moelter,M,SBD,MR-V,75,Raw,2005,,WI,73.87,132.5,142.5,152.5,152.5,90,95,-100,95,-177.5,182.5,192.5,192.5,440,,
30,Dominic Duncan,M,SBD,MR-V,75,Raw,2003,Winneconne,WI,74.31,150,157.5,160,160,-80,80,-87.5,80,185,-192.5,192.5,192.5,432.5,,
31,William Anderson,M,SBD,MR-V,75,Raw,2004,,MA,72.34,-145,145,155,155,82.5,90,92.5,92.5,167.5,177.5,182.5,182.5,430,,
32,Jacob Zoller,M,SBD,MR-V,75,Raw,2004,,MI,73.2,140,142.5,152.5,152.5,100,105,107.5,107.5,155,162.5,170,170,430,,
33,Christopher Frommell,M,SBD,MR-V,75,Raw,2005,,WI,72.62,137.5,142.5,147.5,147.5,90,95,100,100,167.5,-180,-180,167.5,415,,
34,Cesar Chavez,M,SBD,MR-V,75,Raw,2003,,NE,73.36,130,-140,147.5,147.5,90,97.5,-102.5,97.5,160,170,-172.5,170,415,,
35,Collin Albrecht,M,SBD,MR-V,75,Raw,2005,,WI,73.43,130,135,137.5,137.5,-82.5,87.5,-92.5,87.5,165,177.5,182.5,182.5,407.5,,
36,Jack Nelson,M,SBD,MR-V,75,Raw,2004,Osceola High School Powerlifting,WI,72.48,125,132.5,140,140,87.5,92.5,-97.5,92.5,162.5,172.5,-182.5,172.5,405,,
37,Baylee Jewell,M,SBD,MR-V,75,Raw,2003,,WI,74.67,115,-122.5,-122.5,115,87.5,-95,-95,87.5,170,-185,-185,170,372.5,,
DQ,Ben Sackett,M,SBD,MR-V,75,Raw,2005,,WI,73.25,-157.5,-167.5,-167.5,,97.5,102.5,-107.5,102.5,165,-172.5,-172.5,165,,,
1,Mason Mitchell,M,SBD,MR-V,90,Raw,2004,,WI,89.34,220,235,-240,235,-152.5,160,-170,160,227.5,267.5,-277.5,267.5,662.5,,
2,Milo Arlinghaus,M,SBD,MR-V,90,Raw,2003,,MN,87.78,220,227.5,-235,227.5,122.5,130,135,135,245,257.5,270,270,632.5,,
3,Justin Blechinger,M,SBD,MR-V,90,Raw,2003,,WI,85.21,212.5,-220,220,220,145,150,-152.5,150,260,-270,-270,260,630,,
4,Dallin Robertson,M,SBD,MR-V,90,Raw,2004,,UT,89.97,215,222.5,,222.5,155,162.5,-172.5,162.5,240,-242.5,-242.5,240,625,,
5,Ben Anhalt,M,SBD,MR-V,90,Raw,2004,,WI,89.63,212.5,222.5,227.5,227.5,125,132.5,-135,132.5,237.5,257.5,-267.5,257.5,617.5,,
6,Alex Thao,M,SBD,MR-V,90,Raw,2004,Neenah Powerlifting,WI,88.7,210,222.5,232.5,232.5,122.5,130,-137.5,130,215,230,242.5,242.5,605,,
7,Wyatt Hubbard,M,SBD,MR-V,90,Raw,2004,,IL,88.71,190,200,212.5,212.5,135,142.5,-150,142.5,225,240,-247.5,240,595,,
8,Zach Wegner,M,SBD,MR-V,90,Raw,2005,Laconia High School,WI,88.36,182.5,207.5,-222.5,207.5,140,-147.5,152.5,152.5,182.5,205,227.5,227.5,587.5,,
9,Youssef Cherrat,M,SBD,MR-V,90,Raw,2004,,VA,89.98,195,210,215,215,117.5,125,132.5,132.5,227.5,237.5,-242.5,237.5,585,,
10,Brady Bjurstrom,M,SBD,MR-V,90,Raw,2004,,WI,88.24,192.5,202.5,210,210,115,120,125,125,215,227.5,245,245,580,,
11,Noah Foster,M,SBD,MR-V,90,Raw,2004,,WV,87.65,185,197.5,205,205,125,-140,140,140,220,232.5,-245,232.5,577.5,,
12,Luke Fisher,M,SBD,MR-V,90,Raw,2003,,NC,85.77,192.5,200,205,205,102.5,110,117.5,117.5,212.5,230,237.5,237.5,560,,
13,Harrison Gegenhuber,M,SBD,MR-V,90,Raw,2004,Pius XI,WI,89.19,197.5,-207.5,207.5,207.5,117.5,-122.5,-122.5,117.5,230,-247.5,-247.5,230,555,,
14,Nicholas Farvour,M,SBD,MR-V,90,Raw,2005,,WI,87.89,185,190,195,195,107.5,112.5,115,115,-215,220,227.5,227.5,537.5,,
15,Aaron Sellhausen,M,SBD,MR-V,90,Raw,2004,,WI,86.66,180,190,195,195,110,120,125,125,187.5,205,-220,205,525,,
16,Joseph Perez,M,SBD,MR-V,90,Raw,2003,,OH,89.62,175,177.5,180,180,-100,105,107.5,107.5,-210,210,-212.5,210,497.5,,
17,Ryan Briggs,M,SBD,MR-V,90,Raw,2003,,WI,88.09,160,170,177.5,177.5,107.5,112.5,-120,112.5,-197.5,205,-212.5,205,495,,
1,Owen Ostrowski,M,SBD,MR-V,100,Raw,2005,,PA,96.64,252.5,260,267.5,267.5,130,137.5,140,140,275,280,-285,280,687.5,,
2,Steven Singleton,M,SBD,MR-V,100,Raw,2003,,TN,98.79,230,245,250,250,137.5,145,150,150,245,265,-280,265,665,,
3,Sarkis Buchaklian,M,SBD,MR-V,100,Raw,2004,,WI,93.02,195,205,215,215,137.5,145,152.5,152.5,205,220,227.5,227.5,595,,
4,Trevor Fecko,M,SBD,MR-V,100,Raw,2004,,ME,96.71,192.5,217.5,222.5,222.5,130,137.5,-142.5,137.5,210,217.5,235,235,595,,
5,Adam Overby,M,SBD,MR-V,100,Raw,2004,,SD,97.77,202.5,212.5,225,225,132.5,140,145,145,210,225,-240,225,595,,
6,Dillan Hempel,M,SBD,MR-V,100,Raw,2003,,TX,97.98,-225,225,232.5,232.5,130,137.5,-142.5,137.5,215,225,-227.5,225,595,,
7,Aidan Jones,M,SBD,MR-V,100,Raw,2004,,MN,96.37,200,210,220,220,115,125,132.5,132.5,210,222.5,232.5,232.5,585,,
8,Sean Hesse,M,SBD,MR-V,100,Raw,2003,,WI,93.05,170,190,-202.5,190,110,117.5,122.5,122.5,245,262.5,-272.5,262.5,575,,
9,Carson Delander,M,SBD,MR-V,100,Raw,2004,,WI,97,215,-222.5,-222.5,215,125,-130,-130,125,225,232.5,-242.5,232.5,572.5,,
10,Hunter Ogle,M,SBD,MR-V,100,Raw,2004,,TN,96.79,-197.5,197.5,212.5,212.5,122.5,130,-132.5,130,210,225,-235,225,567.5,,
11,Jackson Nei,M,SBD,MR-V,100,Raw,2004,,SD,98.09,205,215,-225,215,-117.5,120,-125,120,230,-245,-245,230,565,,
12,Keegan Conaway,M,SBD,MR-V,100,Raw,2003,,IL,97.37,-180,-192.5,192.5,192.5,132.5,142.5,150,150,180,197.5,212.5,212.5,555,,
13,Brett Alvey,M,SBD,MR-V,100,Raw,2004,,CO,99.18,192.5,215,-242.5,215,102.5,110,-117.5,110,192.5,220,230,230,555,,
14,Mason Bruce,M,SBD,MR-V,100,Raw,2005,,WI,98.82,185,200,205,205,137.5,142.5,-145,142.5,195,205,-212.5,205,552.5,,
15,Adam Pearson,M,SBD,MR-V,100,Raw,2004,,MN,97.19,170,185,190,190,127.5,135,142.5,142.5,195,207.5,215,215,547.5,,
16,Sean Inman,M,SBD,MR-V,100,Raw,2003,,MN,97,185,-197.5,197.5,197.5,107.5,112.5,-117.5,112.5,215,225,-235,225,535,,
17,Anders Mattecheck,M,SBD,MR-V,100,Raw,2003,,SD,99.76,200,205,-212.5,205,107.5,-112.5,-112.5,107.5,200,-220,-225,200,512.5,,
DQ,Cesar Garcia,M,SBD,MR-V,100,Raw,2004,,NE,97.04,210,-227.5,227.5,227.5,90,95,100,100,-210,-210,-210,,,,
DQ,Maddox Schaaf,M,SBD,MR-V,100,Raw,2003,,WI,99.02,197.5,205,-212.5,205,107.5,112.5,-115,112.5,-205,-205,-205,,,,
1,Carson LaBarre,M,SBD,MR-V,110,Raw,2003,,VT,104.46,242.5,255,265,265,160,167.5,170,170,-275,285,300,300,735,,
2,Zack Roovers,M,SBD,MR-V,110,Raw,2004,,WI,107.4,230,245,-255,245,155,165,-167.5,165,275,-295,-295,275,685,,
3,Matthew Schraith,M,SBD,MR-V,110,Raw,2003,,WI,106.04,215,222.5,230,230,125,130,132.5,132.5,267.5,275,282.5,282.5,645,,
4,Breken Turner,M,SBD,MR-V,110,Raw,2004,,WI,106.92,225,237.5,250,250,125,132.5,-137.5,132.5,-215,-227.5,227.5,227.5,610,,
5,Kolter Borge,M,SBD,MR-V,110,Raw,2004,,WI,105.8,220,-232.5,232.5,232.5,125,137.5,-142.5,137.5,232.5,-240,-240,232.5,602.5,,
6,Brogan Black,M,SBD,MR-V,110,Raw,2004,,MD,104.26,210,220,227.5,227.5,107.5,115,122.5,122.5,215,230,242.5,242.5,592.5,,
7,Nathaniel LaRue,M,SBD,MR-V,110,Raw,2004,,LA,106.83,-205,215,-225,215,-140,-145,145,145,232.5,-250,-250,232.5,592.5,,
8,Sam Stoeckmann,M,SBD,MR-V,110,Raw,2004,,WI,107.3,220,230,-235,230,130,137.5,147.5,147.5,202.5,212.5,-222.5,212.5,590,,
9,Ariyo Sanyaolu,M,SBD,MR-V,110,Raw,2005,,WI,103.75,-182.5,182.5,200,200,115,122.5,127.5,127.5,245,260,-272.5,260,587.5,,
10,Zyler Greene,M,SBD,MR-V,110,Raw,2004,,KY,104.31,207.5,-220,-222.5,207.5,140,145,147.5,147.5,210,222.5,227.5,227.5,582.5,,
11,Malachi Partee,M,SBD,MR-V,110,Raw,2004,,PA,107.44,192.5,200,210,210,120,127.5,135,135,195,207.5,222.5,222.5,567.5,,
12,Anthony Moncman,M,SBD,MR-V,110,Raw,2005,,PA,108.72,182.5,192.5,200,200,130,-140,140,140,190,205,-215,205,545,,
13,Samuel Gemmill,M,SBD,MR-V,110,Raw,2004,,PA,108.44,177.5,187.5,197.5,197.5,102.5,107.5,110,110,205,217.5,232.5,232.5,540,,
14,Raymond Waszak,M,SBD,MR-V,110,Raw,2003,,WI,108.05,142.5,182.5,210,210,97.5,107.5,117.5,117.5,155,205,-230,205,532.5,,
1,Luke German,M,SBD,MR-V,125,Raw,2004,,WI,120.85,262.5,-275,275,275,160,175,-185,175,230,-240,240,240,690,,
2,Brandon Taylor #1,M,SBD,MR-V,125,Raw,2005,,MS,116.16,225,255,262.5,262.5,135,150,-155,150,232.5,255,-277.5,255,667.5,,
3,Christian Lezinski,M,SBD,MR-V,125,Raw,2003,,PA,121.11,220,230,-237.5,230,142.5,150,-155,150,227.5,242.5,-252.5,242.5,622.5,,
4,Austin Spangler,M,SBD,MR-V,125,Raw,2005,,OK,122.24,240,255,-272.5,255,105,115,125,125,232.5,242.5,-252.5,242.5,622.5,,
5,Carlos Enriquez,M,SBD,MR-V,125,Raw,2004,,WY,124.06,190,205,215,215,135,-142.5,147.5,147.5,225,245,257.5,257.5,620,,
6,Santino Lentini,M,SBD,MR-V,125,Raw,2004,Pius XI,WI,123.06,230,-235,-235,230,130,135,137.5,137.5,230,242.5,-255,242.5,610,,
7,Raiden Miyashiro,M,SBD,MR-V,125,Raw,2003,,TX,123.45,207.5,222.5,-232.5,222.5,-140,145,150,150,197.5,210,220,220,592.5,,
8,Richard Schenck III,M,SBD,MR-V,125,Raw,2003,,FL,122.9,205,212.5,220,220,127.5,135,-140,135,-205,210,220,220,575,,
9,Brennan Schmeling,M,SBD,MR-V,125,Raw,2003,,WI,124.03,215,-235,-235,215,127.5,140,-142.5,140,215,-222.5,-222.5,215,570,,
10,Case Balke,M,SBD,MR-V,125,Raw,2004,,WI,115.91,185,200,210,210,102.5,110,117.5,117.5,195,202.5,-205,202.5,530,,
11,Gabriel Alvarez,M,SBD,MR-V,125,Raw,2003,,NE,121.38,157.5,167.5,175,175,110,117.5,-125,117.5,212.5,225,-235,225,517.5,,
12,Hayden Eades,M,SBD,MR-V,125,Raw,2004,,WI,123.92,60,,,60,112.5,115,-117.5,115,147.5,162.5,175,175,350,,
1,Samuel Yager,M,SBD,MR-V,140,Raw,2003,,WI,127.94,217.5,230,242.5,242.5,135,145,150,150,245,257.5,262.5,262.5,655,,
2,Will Peterson,M,SBD,MR-V,140,Raw,2004,,NE,136.39,237.5,245,255,255,140,147.5,-155,147.5,240,250,-262.5,250,652.5,,
3,Charlie Hoitink,M,SBD,MR-V,140,Raw,2006,,WI,136.86,207.5,227.5,,227.5,160,165,170,170,227.5,242.5,250,250,647.5,,
4,Steven Young,M,SBD,MR-V,140,Raw,2004,,IL,128.12,-227.5,227.5,-240,227.5,145,-152.5,152.5,152.5,237.5,-255,255,255,635,,
5,Noah Gradeless,M,SBD,MR-V,140,Raw,2004,,MI,131.02,187.5,202.5,217.5,217.5,132.5,140,147.5,147.5,225,242.5,-260,242.5,607.5,,
6,Benjamin Holmes,M,SBD,MR-V,140,Raw,2004,,SD,133.33,210,220,-230,220,115,120,125,125,220,245,-262.5,245,590,,
7,Soren Fuchs,M,SBD,MR-V,140,Raw,2004,,WI,129.89,185,195,205,205,132.5,137.5,-140,137.5,210,220,230,230,572.5,,
DQ,Trey Forrest,M,SBD,MR-V,140,Raw,2004,,OK,139.55,237.5,245,-252.5,245,-130,130,-140,130,-227.5,-227.5,-227.5,,,,
1,Jacob Regan,M,SBD,MR-V,140+,Raw,2004,Osceola High School Powerlifting,WI,145.79,232.5,255,275,275,142.5,152.5,-162.5,152.5,-265,265,-310,265,692.5,,
2,Carter Nielsen,M,SBD,MR-V,140+,Raw,2005,,WI,161.18,210,-227.5,240,240,125,135,-140,135,225,-250,250,250,625,,
3,Daniel Trempala II,M,SBD,MR-V,140+,Raw,2004,,WI,148.73,210,225,-235,225,100,107.5,-115,107.5,210,225,235,235,567.5,,
1,Brady Oleszak,M,SBD,MR-V,67.5,Raw,2003,,WI,66.88,180,185,187.5,187.5,97.5,102.5,105,105,217.5,-222.5,222.5,222.5,515,,
2,Jacob Bartelt,M,SBD,MR-V,67.5,Raw,2004,Winneconne,WI,66.61,167.5,175,177.5,177.5,107.5,110,-112.5,110,200,-205,205,205,492.5,,
3,Garrett Rogers,M,SBD,MR-V,67.5,Raw,2006,,DE,65.7,157.5,162.5,-167.5,162.5,97.5,-100,-100,97.5,217.5,227.5,-232.5,227.5,487.5,,
4,Liam Zuffoletti,M,SBD,MR-V,67.5,Raw,2004,,MA,67.21,172.5,177.5,-182.5,177.5,87.5,92.5,97.5,97.5,200,207.5,210,210,485,,
5,Quentin Berhow,M,SBD,MR-V,67.5,Raw,2004,,WI,66.78,152.5,165,170,170,92.5,97.5,102.5,102.5,-185,185,190,190,462.5,,
6,Dylan Sinthasomphone,M,SBD,MR-V,67.5,Raw,2004,,WI,65.33,-170,-170,170,170,97.5,102.5,-105,102.5,182.5,187.5,-190,187.5,460,,
7,Jack Koch,M,SBD,MR-V,67.5,Raw,2004,,NY,66.11,142.5,155,-165,155,95,-97.5,-97.5,95,185,200,210,210,460,,
8,Alexander Krut,M,SBD,MR-V,67.5,Raw,2004,,PA,65.77,-155,160,167.5,167.5,90,95,-102.5,95,177.5,187.5,195,195,457.5,,
9,Pablo Troop,M,SBD,MR-V,67.5,Raw,2004,,TX,63.67,137.5,142.5,150,150,92.5,97.5,102.5,102.5,187.5,192.5,200,200,452.5,,
10,Brett Heinz,M,SBD,MR-V,67.5,Raw,2005,,WI,65.97,150,157.5,162.5,162.5,92.5,97.5,100,100,175,-197.5,-197.5,175,437.5,,
11,Nicholas Espalin,M,SBD,MR-V,67.5,Raw,2003,,OR,67.08,152.5,162.5,167.5,167.5,90,97.5,-102.5,97.5,155,165,170,170,435,,
12,Hayden Cantrell,M,SBD,MR-V,67.5,Raw,2005,,NE,65.35,150,157.5,165,165,90,95,100,100,150,157.5,162.5,162.5,427.5,,
13,Jacob Malitzki,M,SBD,MR-V,67.5,Raw,2005,,PA,64.83,130,137.5,140,140,85,92.5,-97.5,92.5,-170,180,192.5,192.5,425,,
14,Kadyn Swenson,M,SBD,MR-V,67.5,Raw,2004,,SD,66.6,137.5,145,-150,145,75,80,-82.5,80,177.5,190,-202.5,190,415,,
15,Damien Bell,M,SBD,MR-V,67.5,Raw,2005,,WI,66.97,130,135,-145,135,-97.5,97.5,-102.5,97.5,157.5,170,182.5,182.5,415,,
16,Sam Volkman,M,SBD,MR-V,67.5,Raw,2005,Neenah Powerlifting,WI,65.85,122.5,132.5,137.5,137.5,87.5,95,-97.5,95,157.5,167.5,175,175,407.5,,
17,Zander Barr,M,SBD,MR-V,67.5,Raw,2004,,WI,65.56,117.5,125,-130,125,80,85,-87.5,85,177.5,185,-190,185,395,,
18,Kevin Halvorson,M,SBD,MR-V,67.5,Raw,2003,,WI,66.5,125,135,142.5,142.5,65,70,75,75,140,175,-185,175,392.5,,
19,Grant Conlin,M,SBD,MR-V,67.5,Raw,2004,,WI,67.43,132.5,140,142.5,142.5,67.5,72.5,-77.5,72.5,165,177.5,-180,177.5,392.5,,
20,Curtis Soller,M,SBD,MR-V,67.5,Raw,2003,,OH,64.6,-125,137.5,-140,137.5,72.5,85,-87.5,85,142.5,165,167.5,167.5,390,,
21,Jason Raymond,M,SBD,MR-V,67.5,Raw,2003,,PA,64.77,115,120,135,135,70,77.5,80,80,157.5,172.5,-182.5,172.5,387.5,,
22,Maxwell Davis,M,SBD,MR-V,67.5,Raw,2004,,MA,65.23,127.5,140,147.5,147.5,70,77.5,-80,77.5,145,155,160,160,385,,
23,Prestin Brunette,M,SBD,MR-V,67.5,Raw,2004,,WI,66.11,117.5,120,122.5,122.5,72.5,-77.5,77.5,77.5,-177.5,185,-187.5,185,385,,
24,Drayden Hannan,M,SBD,MR-V,67.5,Raw,2007,Winneconne,WI,67.08,120,127.5,-132.5,127.5,82.5,87.5,90,90,150,160,165,165,382.5,,
25,Brody Harvey,M,SBD,MR-V,67.5,Raw,2005,,WI,63.33,127.5,135,-142.5,135,82.5,87.5,-90,87.5,152.5,157.5,-160,157.5,380,,
26,Angel Perez,M,SBD,MR-V,67.5,Raw,2004,,NE,65.1,120,130,132.5,132.5,60,65,67.5,67.5,167.5,175,180,180,380,,
27,Caleb Eyler,M,SBD,MR-V,67.5,Raw,2005,,PA,65.96,105,112.5,117.5,117.5,87.5,92.5,95,95,140,150,155,155,367.5,,
28,Braedon Pederson,M,SBD,MR-V,67.5,Raw,2003,Elk Mound High School Powerlifting,WI,64.97,117.5,132.5,-147.5,132.5,75,80,-85,80,137.5,150,-162.5,150,362.5,,
29,Eli Realing,M,SBD,MR-V,67.5,Raw,2004,,WY,66.42,110,115,122.5,122.5,82.5,90,95,95,127.5,135,140,140,357.5,,
30,Landon Hadrath,M,SBD,MR-V,67.5,Raw,2004,,MN,66.44,-92.5,92.5,-107.5,92.5,67.5,-70,-70,67.5,132.5,142.5,155,155,315,,
31,Morgan Bailey,M,SBD,MR-V,67.5,Raw,2004,,NE,66.84,80,85,90,90,60,62.5,65,65,140,145,150,150,305,,
1,Max Bergman,M,SBD,MR-V,82.5,Raw,2004,,MN,77.18,210,217.5,227.5,227.5,112.5,-117.5,-122.5,112.5,257.5,270,275,275,615,,
2,James Rogers #1,M,SBD,MR-V,82.5,Raw,2004,,WI,81.91,200,210,215,215,142.5,152.5,157.5,157.5,220,232.5,240,240,612.5,,
3,Mitchel Gamache,M,SBD,MR-V,82.5,Raw,2004,,WI,81.97,182.5,195,-207.5,195,147.5,157.5,-165,157.5,227.5,237.5,-240,237.5,590,,
4,Evan Downing,M,SBD,MR-V,82.5,Raw,2003,,ME,82.03,237.5,252.5,-260,252.5,105,112.5,117.5,117.5,215,-230,-230,215,585,,
5,Dawson Stebbins,M,SBD,MR-V,82.5,Raw,2004,,MI,81.17,190,205,-212.5,205,110,125,-132.5,125,215,235,247.5,247.5,577.5,,
6,Luke Nesbit,M,SBD,MR-V,82.5,Raw,2004,,GA,80.07,220,-240,-240,220,105,120,-122.5,120,220,235,-252.5,235,575,,
7,Elijah Horstman,M,SBD,MR-V,82.5,Raw,2005,,OH,80.44,-210,222.5,-235,222.5,127.5,132.5,-140,132.5,-217.5,217.5,-222.5,217.5,572.5,,
8,Jace Loignon,M,SBD,MR-V,82.5,Raw,2004,Winneconne,WI,81,195,205,215,215,127.5,135,140,140,192.5,205,210,210,565,,
9,Anthony Chadeayne,M,SBD,MR-V,82.5,Raw,2004,,IL,79.54,185,192.5,-205,192.5,-122.5,132.5,137.5,137.5,215,232.5,-235,232.5,562.5,,
10,Marcus McFadden,M,SBD,MR-V,82.5,Raw,2005,,NY,80.99,187.5,197.5,-205,197.5,107.5,112.5,115,115,225,240,250,250,562.5,,
11,Renato Barron,M,SBD,MR-V,82.5,Raw,2006,,NC,82.34,202.5,-215,215,215,-120,120,125,125,-200,210,220,220,560,,
12,Dylan Johnson #2,M,SBD,MR-V,82.5,Raw,2004,,WI,78.53,180,190,-197.5,190,120,125,-130,125,205,227.5,242.5,242.5,557.5,,
13,Joseph Tyler,M,SBD,MR-V,82.5,Raw,2005,,NY,79.73,182.5,195,197.5,197.5,107.5,115,120,120,222.5,230,237.5,237.5,555,,
14,Benjamin Keske,M,SBD,MR-V,82.5,Raw,2004,,MN,80.54,195,-205,210,210,105,110,-112.5,110,217.5,227.5,235,235,555,,
15,Jayden Gordian,M,SBD,MR-V,82.5,Raw,2004,,NY,77.9,-187.5,190,202.5,202.5,105,110,115,115,220,232.5,-242.5,232.5,550,,
16,JT Lightner,M,SBD,MR-V,82.5,Raw,2003,,IL,79.05,180,192.5,200,200,110,120,-127.5,120,210,220,227.5,227.5,547.5,,
17,Sam Sutherland,M,SBD,MR-V,82.5,Raw,2004,,MA,80.87,190,197.5,205,205,-102.5,107.5,-112.5,107.5,217.5,-230,235,235,547.5,,
18,Dominic Corrente,M,SBD,MR-V,82.5,Raw,2004,Neenah Powerlifting,WI,80.61,175,185,190,190,110,115,117.5,117.5,202.5,215,225,225,532.5,,
19,Gabriel Lindsey,M,SBD,MR-V,82.5,Raw,2004,,OH,82.29,177.5,185,192.5,192.5,110,117.5,-120,117.5,220,-230,-230,220,530,,
20,Danny Hashempour,M,SBD,MR-V,82.5,Raw,2005,,MD,79.51,170,180,190,190,107.5,112.5,117.5,117.5,185,200,212.5,212.5,520,,
21,Devlin Smith,M,SBD,MR-V,82.5,Raw,2005,,PA,81.14,175,192.5,205,205,92.5,102.5,-107.5,102.5,-210,210,-227.5,210,517.5,,
22,Colton Christensen,M,SBD,MR-V,82.5,Raw,2006,,WI,80.1,165,175,180,180,110,117.5,122.5,122.5,200,207.5,212.5,212.5,515,,
23,Owen Bringe,M,SBD,MR-V,82.5,Raw,2004,,WI,80.08,185,190,-200,190,117.5,-125,-125,117.5,-197.5,197.5,-202.5,197.5,505,,
24,Kaelan McDonough,M,SBD,MR-V,82.5,Raw,2004,,WI,80.85,187.5,197.5,202.5,202.5,102.5,110,-112.5,110,185,190,-195,190,502.5,,
25,Bryce Boyer,M,SBD,MR-V,82.5,Raw,2005,,WY,79.39,172.5,-185,-185,172.5,110,115,120,120,190,205,-215,205,497.5,,
26,Joe Bork,M,SBD,MR-V,82.5,Raw,2004,,WI,81.67,172.5,185,-192.5,185,92.5,100,-105,100,202.5,210,-225,210,495,,
27,William Kaufmann,M,SBD,MR-V,82.5,Raw,2003,,WI,81.24,190,195,-200,195,95,-100,-100,95,200,-202.5,202.5,202.5,492.5,,
28,Brannt Balfanz,M,SBD,MR-V,82.5,Raw,2004,,WI,80.84,-175,177.5,-185,177.5,92.5,97.5,100,100,200,210,-217.5,210,487.5,,
29,Liam Knotek,M,SBD,MR-V,82.5,Raw,2005,,PA,82.01,-155,172.5,177.5,177.5,100,105,-110,105,182.5,200,205,205,487.5,,
30,Joshua Sentner,M,SBD,MR-V,82.5,Raw,2004,,VA,79.03,-160,160,-180,160,105,110,-112.5,110,205,215,-227.5,215,485,,
31,Ryan Brost,M,SBD,MR-V,82.5,Raw,2004,,SD,79.31,175,182.5,-192.5,182.5,102.5,107.5,112.5,112.5,170,182.5,190,190,485,,
32,Paul Kundert,M,SBD,MR-V,82.5,Raw,2005,,WI,79.75,157.5,167.5,-175,167.5,92.5,97.5,-102.5,97.5,200,217.5,-225,217.5,482.5,,
33,Kyle Matthews,M,SBD,MR-V,82.5,Raw,2003,,WV,81.37,170,175,180,180,100,105,-110,105,195,-197.5,-197.5,195,480,,
34,Logan Paris,M,SBD,MR-V,82.5,Raw,2004,,WI,82.15,162.5,180,-185,180,102.5,-117.5,-117.5,102.5,165,195,-207.5,195,477.5,,
35,Lorenzo D'Angelo,M,SBD,MR-V,82.5,Raw,2005,,NJ,82.26,155,165,170,170,100,107.5,-110,107.5,180,192.5,200,200,477.5,,
36,Aiden Charron,M,SBD,MR-V,82.5,Raw,2003,,VT,79.37,147.5,157.5,160,160,115,125,-127.5,125,170,182.5,187.5,187.5,472.5,,
37,Leonardo Martinez,M,SBD,MR-V,82.5,Raw,2004,,NE,81.56,142.5,145,157.5,157.5,95,-100,-100,95,200,-210,217.5,217.5,470,,
38,Jacob Hedinger,M,SBD,MR-V,82.5,Raw,2004,,WI,82.5,150,165,-172.5,165,87.5,95,-102.5,95,177.5,195,205,205,465,,
39,Hudson Tamulion,M,SBD,MR-V,82.5,Raw,2005,Neenah Powerlifting,WI,79.42,155,165,170,170,85,87.5,-90,87.5,185,195,205,205,462.5,,
40,Xander Sheehan,M,SBD,MR-V,82.5,Raw,2004,,SD,80.22,157.5,165,-170,165,112.5,-120,-120,112.5,185,-195,-195,185,462.5,,
