﻿Tabelle1
Ergebnisliste „King of Bench“ 2008 BXI
Name                                     Alter Ort                                     K-gewicht  Bester Versuch Punkte Platz
André Lepies                             29          Hannoverschmünden 101kg           245kg                                    144     1
Tobias Ide                               28          Schwerin                  131kg   260kg                                    129     2
Jürgen Marek                             53          Bielefeld                 117kg   240kg                                    123     3
André Hoff                               33          Seehausen                 99kg    215kg                                    116     4
Stefan Fecken                            28          Parchim                   112kg   225kg                                    113,5   5
Jan Ehlenberger                          26          Balingen                  102kg   200kg                                    108     6
Mirco Jentzsch                           33          Bielefeld                 111kg   217,5kg                                  106,5   7
Jürgen Steidl                            41          Rosenheim                 127kg   232,5kg                                  105,5   8
Walter Kurda                             55          Köln                      117kg   210kg                                    93      9
Urs auf der Maur                         39          Einsiedel/CH              97kg    180kg                                    83      10
Ralf Wagner                              38          München                   128kg   205kg                                    77      11
Christoph Sackstedt                      36          Verden                    113kg   ----                                     ---     ---
Arvid Penker                             32          Crimmitschau              108kg   ----                                     ---     ---
Seite 1
