Place,Name,Sex,BirthDate,Age,Equipment,Division,BodyweightKg,WeightClassKg,Squat1Kg,Squat2Kg,Squat3Kg,Squat4Kg,Best3SquatKg,Bench1Kg,Bench2Kg,Bench3Kg,Bench4Kg,Best3BenchKg,Deadlift1Kg,Deadlift2Kg,Deadlift3Kg,Deadlift4Kg,Best3DeadliftKg,TotalKg,Event
1,Brooke Humphries,F,1995-02-28,27,Raw,DT Novice,58.31,60,85,-97.5,97.5,,97.5,40,45,-50,,45,92.5,100,105,107.5,105,247.5,SBD
1,Eva Honzell,F,1985-02-23,37,Raw,DT Open,90.77,100,82.5,92.5,100,,100,47.5,52.5,57.5,,57.5,115,137.5,-142.5,,137.5,295,SBD
1,Ronni Schaber,F,1997-09-05,,Raw,DT Open,116.22,125,85,92.5,-115,,92.5,65,70,75,,75,102.5,110,115,120,115,282.5,SBD
1,Grace Dailey,F,2006-05-23,15,Raw,DT Teen,60.81,67.5,85,95,105,,105,45,47.5,-50,,47.5,92.5,-100,100,-102.5,100,252.5,SBD
1,Rainie Mott,F,2005-09-04,16,Single-ply,DT Open,60.63,67.5,112.5,122.5,-135,,122.5,67.5,-75,75,,75,117.5,-122.5,122.5,125,122.5,320,SBD
1,Flor Carillo,F,2004-06-29,17,Single-ply,DT Open,95.4,100,120,-150,-150,,120,62.5,-67.5,67.5,,67.5,120,-135,-135,,120,307.5,SBD
1,Brianna Zaragoza,F,2006-05-15,15,Single-ply,DT Teen,99.4,100,120,-132.5,132.5,,132.5,-67.5,-70,70,,70,122.5,-137.5,-137.5,,122.5,325,SBD
1,Gloria Leija,F,1983-03-21,39,Raw,DT Open,79.27,82.5,,,,,,-52.5,52.5,55,,55,105,107.5,112.5,115,112.5,167.5,BD
1,Elisabeth Pinkston,F,1999-06-24,22,Raw,Intermediate,106.81,110,,,,,,37.5,-42.5,-42.5,,37.5,85,90,95,105,95,132.5,BD
1,MacKenzie Brown #3,F,2011-08-11,10,Raw,DT Novice,41.1,44,,,,,,,,,,,37.5,42.5,47.5,55,47.5,47.5,D
1,Angela Koch,F,1962-07-30,59,Raw,Master 2,82.1,82.5,,,,,,,,,,,90,100,112.5,,112.5,112.5,D
1,Cody Murphy,M,1993-09-03,28,Raw,DT Int,110.13,125,215,227.5,232.5,,232.5,152.5,157.5,-162.5,,157.5,255,275,-280,,275,665,SBD
DQ,Karson Owen,M,2005-12-14,16,Raw,DT Open,61.04,67.5,117.5,125,-140,,125,72.5,-80,80,,80,-157.5,-157.5,-157.5,,,,SBD
1,Austen Renner,M,1999-02-04,23,Raw,DT Open,97,100,155,170,177.5,,177.5,100,105,-110,,105,195,-215,-215,,195,477.5,SBD
1,Gabriel Barrera,M,1987-05-29,34,Raw,DT Open,107.31,110,150,155,165,172.5,165,137.5,-142.5,-142.5,,137.5,230,232.5,237.5,,237.5,540,SBD
2,Jack Anderson #1,M,1979-03-05,43,Raw,DT Open,109.04,110,-110,-112.5,112.5,,112.5,-80,82.5,90,,90,172.5,182.5,197.5,207.5,197.5,400,SBD
1,Matt Newcomer,M,1983-07-29,38,Raw,DT Open,121.36,125,220,232.5,242.5,,242.5,157.5,167.5,-172.5,,167.5,265,277.5,285,,285,695,SBD
1,Matthew Herbert,M,1994-01-20,28,Raw,DT Open,134.18,140,142.5,150,157.5,,157.5,97.5,102.5,107.5,,107.5,175,192.5,197.5,200,197.5,462.5,SBD
1,Michael Rundle,M,1985-06-17,36,Raw,DT P/F/M,79.95,82.5,135,147.5,155,,155,90,95,105,-115,105,165,175,185,195,185,445,SBD
1,Michael Rundle,M,1985-06-17,36,Raw,DT Sub Master,79.95,82.5,135,147.5,155,,155,90,95,105,-115,105,165,175,185,195,185,445,SBD
1,Matt Newcomer,M,1983-07-29,38,Raw,DT Sub Master,121.36,125,220,232.5,242.5,,242.5,157.5,167.5,-172.5,,167.5,265,277.5,285,,285,695,SBD
1,Matthew Herbert,M,,,Raw,DT Sub Master,134.18,140,142.5,150,157.5,,157.5,97.5,102.5,107.5,,107.5,175,192.5,197.5,200,197.5,462.5,SBD
1,Blaine Sowell,M,2007-07-02,14,Raw,DT Teen,59.42,60,100,107.5,112.5,-117.5,112.5,52.5,57.5,60,-65,60,140,150,157.5,-162.5,157.5,330,SBD
1,Carter Busbee,M,2006-11-02,15,Raw,DT Teen,79.95,82.5,102.5,110,117.5,,117.5,57.5,60,65,,65,110,125,137.5,145,137.5,320,SBD
1,Logan Caton,M,2000-03-15,22,Raw,Open,122.36,125,102.5,192.5,210,,210,45,70,95,,95,140,195,220,,220,525,SBD
1,Donnie Duncan,M,1974-02-24,48,Wraps,DT Master 1,86.36,90,207.5,225,-237.5,,225,110,115,120,,120,247.5,-265,-265,,247.5,592.5,SBD
1,Donnie Duncan,M,1974-02-24,48,Wraps,DT Open,86.36,90,207.5,225,-237.5,,225,110,115,120,,120,247.5,-265,-265,,247.5,592.5,SBD
1,Shawn Baldelamar,M,1994-02-25,28,Wraps,DT Open,98.1,100,242.5,262.5,265,,265,150,165,-177.5,,165,230,242.5,-255,,242.5,672.5,SBD
1,Lane Davis,M,2003-11-12,18,Single-ply,DT Teen,64.95,67.5,152.5,-165,-165,,152.5,95,-107.5,-107.5,,95,152.5,165,-170,,165,412.5,SBD
1,Garrison Conner,M,2004-05-09,17,Single-ply,DT Teen,77.95,82.5,157.5,162.5,170,,170,85,92.5,-100,,92.5,205,217.5,227.5,,227.5,490,SBD
1,Tate Cottrell,M,2006-03-23,16,Raw,DT Novice,67.31,67.5,,,,,,35,40,47.5,,47.5,65,75,-85,,75,122.5,BD
1,John Herod,M,1979-04-22,42,Raw,Open,114.76,125,,,,,,165,175,-182.5,,175,,,,,,175,B
