Division,WeightClassKg,Place,Name,Team,BodyweightKg,Best3SquatKg,Best3BenchKg,Best3DeadliftKg,TotalKg,Equipment,Event,Sex
Boys,51.71,1,Herquin Chable,Channelview,50.89,120.2,65.77,151.95,337.93,Single-ply,SBD,M
Boys,51.71,2,Paul Bass,Katy Mayde Creek,51.62,115.67,54.43,113.4,283.5,Single-ply,SBD,M
Boys,51.71,3,Jacory Bellany,Houston Madison,50.89,104.33,49.9,108.86,263.08,Single-ply,SBD,M
Boys,51.71,DQ,Ramon Ayala,Pearland,51.71,,,,,Single-ply,SBD,M
Boys,55.79,1,Dominic Monsivaiz,Dickinson,55.52,147.42,77.11,142.88,367.41,Single-ply,SBD,M
Boys,55.79,2,Eric Flores,Katy Mayde Creek,55.7,124.74,74.84,151.95,351.53,Single-ply,SBD,M
Boys,59.87,3,Chein Phan,Dickinson,55.88,136.08,65.77,149.69,351.53,Single-ply,SBD,M
Boys,55.79,4,Brandon Jordan,Dickinson,55.07,104.33,72.57,111.13,288.03,Single-ply,SBD,M
Boys,55.79,DQ,Al Dehoyas,Houston Westbury,55.79,,,,,Single-ply,SBD,M
Boys,59.87,1,Cecilio Hernandez,Dickinson,59.69,170.1,106.59,181.44,458.13,Single-ply,SBD,M
Boys,59.87,2,Brandon Martinez,Dickinson,59.51,136.08,90.72,149.69,376.48,Single-ply,SBD,M
Boys,59.87,DQ,Ej Smith,Beaumont Ozen,59.87,,,,,Single-ply,SBD,M
Boys,59.87,DQ,Donovan Lee,Katy Mayde Creek,59.87,,,,,Single-ply,SBD,M
Boys,67.13,1,Alec DeLeon,Dickinson,66.68,226.8,111.13,201.85,539.77,Single-ply,SBD,M
Boys,67.13,2,Gregory Hunter,Channelview,66.95,174.63,102.06,174.63,451.32,Single-ply,SBD,M
Boys,74.84,3,Bryston Braziel,Stafford,67.31,176.9,92.99,161.03,430.91,Single-ply,SBD,M
Boys,67.13,4,Roy Lewis,Houston Westbury,66.5,158.76,90.72,179.17,428.64,Single-ply,SBD,M
Boys,67.13,5,Brady Abowd,Pearland,63.05,149.69,99.79,161.03,410.5,Single-ply,SBD,M
Boys,67.13,6,Ricky Delacerda,Dickinson,65.86,142.88,83.91,163.29,390.09,Single-ply,SBD,M
Boys,67.13,7,Chris Patton,Katy Mayde Creek,66.95,158.76,77.11,,235.87,Single-ply,SB,M
Boys,67.13,8,Rodney Winford,Beaumont Ozen,61.14,90.72,,102.06,192.78,Single-ply,SD,M
Boys,67.13,DQ,Jacob Mears,Beaumont Ozen,67.13,,,,,Single-ply,SD,M
Boys,67.13,DQ,William Williams,Channelview,67.13,,,,,Single-ply,SD,M
Boys,67.13,DQ,Chance Sullivan,Pearland,67.13,,,,,Single-ply,SD,M
Boys,74.84,1,Trey Vaughans,Dickinson,74.21,204.12,129.27,181.44,514.83,Single-ply,SBD,M
Boys,82.1,2,Dodi Vasquez,Dickinson,75.02,176.9,129.27,190.51,496.68,Single-ply,SBD,M
Boys,74.84,3,David Broussard,Channelview,69.85,190.51,108.86,183.7,483.08,Single-ply,SBD,M
Boys,74.84,4,Dezmon Simpson,Beaumont Ozen,74.84,136.08,92.99,190.51,419.57,Single-ply,SBD,M
Boys,74.84,5,Chris Narcisse,Beaumont Ozen,71.4,136.08,111.13,163.29,410.5,Single-ply,SBD,M
Boys,74.84,6,Cameron Simms,Houston Madison,74.43,136.08,113.4,158.76,408.23,Single-ply,SBD,M
Boys,74.84,7,Dornell Murrell,Houston Madison,69.67,115.67,72.57,147.42,335.66,Single-ply,SBD,M
Boys,74.84,8,Mackeal Perry,Beaumont Ozen,74.84,,92.99,170.1,263.08,Single-ply,BD,M
Boys,74.84,9,Marquis Butler,Houston Madison,68.49,122.47,,136.08,258.55,Single-ply,SD,M
Boys,74.84,10,Dylan Martin,Houston Madison,74.3,83.91,,142.88,226.8,Single-ply,SD,M
Boys,74.84,11,Markel Perry,Beaumont Ozen,72.76,,92.99,,92.99,Single-ply,B,M
Boys,74.84,DQ,Calvin Laskey,Katy Mayde Creek,74.84,,,,,Single-ply,B,M
Boys,74.84,DQ,Damian Velazquez,Pasadena Memorial,74.84,,,,,Single-ply,B,M
Boys,74.84,DQ,Dezmen Simpson,Beaumont Ozen,74.03,136.08,92.99,190.51,,Single-ply,SBD,M
Boys,82.1,1,Thomas Bridges,Dickinson,79.47,215.46,158.76,226.8,601.01,Single-ply,SBD,M
Boys,82.1,DQ,Chris Jefferson,Channelview,79.65,,,,,Single-ply,SBD,M
Boys,82.1,3,Raine Spafford,Pearland,77.11,183.7,108.86,195.04,487.61,Single-ply,SBD,M
Boys,82.1,4,Kameron Harris,Channelview,75.66,181.44,88.45,197.31,467.2,Single-ply,SBD,M
Boys,82.1,5,Gabe Benitez,Pearland,82.1,161.03,97.52,179.17,437.72,Single-ply,SBD,M
Boys,82.1,6,Richard Gomez,Houston Westbury,80.83,158.76,90.72,170.1,419.57,Single-ply,SBD,M
Boys,82.1,7,Fabian Luna,Pasadena Memorial,75.75,147.42,81.65,176.9,405.97,Single-ply,SBD,M
Boys,82.1,8,Ethan Holmes,Houston Madison,81.28,147.42,77.11,142.88,367.41,Single-ply,SBD,M
Boys,82.1,9,J. Franklin,Houston Westbury,81.28,124.74,88.45,145.15,358.34,Single-ply,SBD,M
Boys,82.1,DQ,Davonte Holt-Watson,Channelview,82.1,,,,,Single-ply,SBD,M
Boys,82.1,DQ,Roland Reza,Beaumont Ozen,82.1,,,,,Single-ply,SBD,M
Boys,82.1,DQ,Jacob Joubert,Pearland,82.1,,,,,Single-ply,SBD,M
Boys,82.1,DQ,Carlos Garay,Pasadena Memorial,82.1,,,,,Single-ply,SBD,M
Boys,89.81,1,Zane Gonzales,Pearland,86.45,188.24,111.13,195.04,494.42,Single-ply,SBD,M
Boys,89.81,2,Cleaon Jolly,Dickinson,89.81,172.37,104.33,174.63,451.32,Single-ply,SBD,M
Boys,89.81,3,Javier Picon,Katy Mayde Creek,89.81,158.76,92.99,185.97,437.72,Single-ply,SBD,M
Boys,89.81,4,Jason Forsberg,Dickinson,84.82,145.15,108.86,167.83,421.84,Single-ply,SBD,M
Boys,89.81,5,Luis Santiago,Pasadena Memorial,83.91,158.76,79.38,172.37,410.5,Single-ply,SBD,M
Boys,89.81,6,Dallas Garret,Houston Westbury,88.45,147.42,74.84,151.95,374.21,Single-ply,SBD,M
Boys,89.81,7,Jalen Hurts,Channelview,85.64,226.8,113.4,,340.19,Single-ply,SB,M
Boys,89.81,8,Jordan Daigle,Beaumont Ozen,83.91,183.7,124.74,,308.44,Single-ply,SB,M
Boys,89.81,9,Ward Richard,Houston Madison,88.99,138.35,97.52,,235.87,Single-ply,SB,M
Boys,89.81,10,Matt Klaeverman,Pearland,84.01,129.27,83.91,,213.19,Single-ply,SB,M
Boys,89.81,11,Darrah Forman,Houston Madison,89.36,188.24,,,188.24,Single-ply,S,M
Boys,89.81,DQ,Eric Mexicano,Pasadena Memorial,89.81,,,,,Single-ply,S,M
Boys,99.79,1,Jorge Oviedo,Pasadena Memorial,99.79,199.58,108.86,226.8,535.24,Single-ply,SBD,M
Boys,99.79,2,Christian Rodriguez #8,Pasadena Memorial,99.79,215.46,113.4,199.58,528.44,Single-ply,SBD,M
Boys,99.79,3,Eddie White,Pearland,99.7,183.7,120.2,195.04,498.95,Single-ply,SBD,M
Boys,99.79,4,Elton Woodard,Stafford,94.44,188.24,120.2,181.44,489.88,Single-ply,SBD,M
Boys,99.79,5,Deandre Washington,Beaumont Ozen,91.99,181.44,106.59,181.44,469.47,Single-ply,SBD,M
Boys,99.79,6,Andre Salazar,Pearland,93.71,170.1,106.59,163.29,439.98,Single-ply,SBD,M
Boys,99.79,7,Sam Cepeda,Pasadena Memorial,96.43,156.49,90.72,190.51,437.72,Single-ply,SBD,M
Boys,99.79,8,Kyle Henderson,Pearland,98.52,147.42,106.59,174.63,428.64,Single-ply,SBD,M
Boys,99.79,DQ,Remington Felder,Katy Mayde Creek,99.79,,,,,Single-ply,SBD,M
Boys,99.79,DQ,Justin Lilley,Pearland,97.07,,88.45,188.24,,Single-ply,SBD,M
Boys,109.77,1,Kaylond North,Dickinson,108.59,294.84,165.56,256.28,716.68,Single-ply,SBD,M
Boys,109.77,2,Anietie Etuk,Dickinson,109.77,249.48,133.81,249.48,632.76,Single-ply,SBD,M
Boys,109.77,3,Dillon Anderson #2,Katy Mayde Creek,107.59,226.8,154.22,215.46,596.47,Single-ply,SBD,M
Boys,109.77,4,Bryan Herrera,Pearland,107.77,219.99,124.74,215.46,560.19,Single-ply,SBD,M
Boys,109.77,5,Ronnie Fraser,Pearland,105.32,215.46,124.74,215.46,555.65,Single-ply,SBD,M
Boys,109.77,6,Jared Reedy,Dickinson,108.5,226.8,122.47,204.12,553.38,Single-ply,SBD,M
Boys,109.77,7,Malcom Pringle,Houston Westbury,104.42,192.78,129.27,226.8,548.85,Single-ply,SBD,M
Boys,109.77,8,Brandon Clay,Dickinson,103.15,199.58,136.08,165.56,501.22,Single-ply,SBD,M
Boys,109.77,9,Livan Lopez,Dickinson,103.96,165.56,106.59,183.7,455.86,Single-ply,SBD,M
Boys,109.77,10,Jason Weeden,Pasadena Memorial,104.6,213.19,,204.12,417.3,Single-ply,SD,M
Boys,109.77,11,Beau Bearden,Pasadena Memorial,108.59,151.95,102.06,149.69,403.7,Single-ply,SBD,M
Boys,109.77,12,Arthur Harmon,Beaumont Ozen,104.33,136.08,81.65,149.69,367.41,Single-ply,SBD,M
Boys,109.77,13,Shaun Callis,Houston Westbury,107.32,122.47,83.91,136.08,342.46,Single-ply,SBD,M
Boys,109.77,14,Oris Granger,Beaumont Ozen,106.5,111.13,81.65,145.15,337.93,Single-ply,SBD,M
Boys,109.77,15,Ikemba Anyanu,Houston Westbury,106.87,124.74,61.23,142.88,328.85,Single-ply,SBD,M
Boys,109.77,DQ,Adam Jewel,Pearland,109.77,,,,,Single-ply,SBD,M
Boys,109.77,DQ,Eligia Pierre,Beaumont Ozen,109.77,,,,,Single-ply,SBD,M
Boys,109.77,DQ,Dejohn Handy,Beaumont Ozen,109.77,,,,,Single-ply,SBD,M
Boys,109.77,DQ,Gavan Cooper,Channelview,109.77,,,,,Single-ply,SBD,M
Boys,109.77,DQ,Sterling Ofoh,Houston Westbury,109.77,,,,,Single-ply,SBD,M
Boys,109.77,DQ,Marques Coleman,Dickinson,109.77,,,,,Single-ply,SBD,M
Boys,124.74,1,Ernesto Reales,Dickinson,121.2,294.84,140.61,215.46,650.91,Single-ply,SBD,M
Boys,124.74,2,Oshuan Lewis,Houston Westbury,123.2,226.8,149.69,238.14,614.62,Single-ply,SBD,M
Boys,124.74,3,Malik Essilfie,Katy Mayde Creek,115.58,251.74,124.74,215.46,591.94,Single-ply,SBD,M
Boys,124.74,4,Sean Shahzad,Katy Mayde Creek,121.47,226.8,129.27,226.8,582.87,Single-ply,SBD,M
Boys,124.74,5,Zach Arias,Pearland,124.28,204.12,142.88,204.12,551.11,Single-ply,SBD,M
Boys,124.74,6,Lance Zeno,Beaumont Ozen,112.22,181.44,136.08,210.92,528.44,Single-ply,SBD,M
Boys,124.74,7,Gino Cortez,Pearland,122.92,188.24,129.27,179.17,496.68,Single-ply,SBD,M
Boys,124.74,8,Diego Zamudio,Pasadena Memorial,118.84,172.37,111.13,192.78,476.27,Single-ply,SBD,M
Boys,124.74,9,Tim Thomas,Pasadena Memorial,119.29,192.78,97.52,185.97,476.27,Single-ply,SBD,M
Boys,124.74,10,Richard Neal,Pearland,114.76,151.95,113.4,204.12,469.47,Single-ply,SBD,M
Boys,124.74,11,Joey Langoria,Pearland,116.57,161.03,113.4,179.17,453.59,Single-ply,SBD,M
Boys,124.74,12,Deshondric Selmon,Beaumont Ozen,112.85,102.06,72.57,158.76,333.39,Single-ply,SBD,M
Boys,124.74,DQ,Terrance Broussard,Beaumont Ozen,124.74,,,,,Single-ply,SBD,M
Boys,124.74,DQ,Tyrese Henderson,Beaumont Ozen,124.74,,,,,Single-ply,SBD,M
Boys,124.74,DQ,Andrew Velasco,Katy Mayde Creek,124.74,,,,,Single-ply,SBD,M
Boys,124.74+,1,William Simpson,Houston Madison,144.24,322.05,199.58,249.48,771.11,Single-ply,SBD,M
Boys,124.74+,2,Alonzo Crittendon,Dickinson,141.43,294.84,145.15,263.08,703.07,Single-ply,SBD,M
Boys,124.74+,3,Chance Harmanson,Dickinson,138.53,306.17,158.76,233.6,698.53,Single-ply,SBD,M
Boys,124.74+,4,Jonathan Pecina,Houston Westbury,125.74,165.56,102.06,181.44,449.06,Single-ply,SBD,M
Boys,124.74+,5,Kevin Maddox,Houston Madison,155.13,149.69,90.72,158.76,399.16,Single-ply,SBD,M
Boys,124.74+,6,Trevion Benoit,Houston Madison,137.89,111.13,,,111.13,Single-ply,S,M
Boys,124.74+,DQ,Chance Cummings #3,Dickinson,125.19,,,,,Single-ply,S,M
Boys,124.74+,DQ,Eugene Mitchell,Beaumont Ozen,125.19,,,,,Single-ply,S,M
Boys,124.74+,DQ,Quinton Smith,Beaumont Ozen,125.19,,,,,Single-ply,S,M
