WeightClassKg,Name,Division,Sex,Best3SquatKg,Best3BenchKg,Best3DeadliftKg,TotalKg,Event,Equipment,Place
52,Greg Ciola,Teen 14-15,M,,,,283.5,SBD,Single-ply,1
52,Jon Duydrne,Teen 14-15,M,,,,278.96,SBD,Single-ply,2
52,R. Carpenter,Teen 14-15,M,,,,276.69,SBD,Single-ply,3
52,Jeff Brown,Teen 16-17,M,,,,337.93,SBD,Single-ply,1
52,C. McCarthy,Teen 16-17,M,,,,256.28,SBD,Single-ply,2
56,Steve Factune,Teen 14-15,M,,,,306.17,SBD,Single-ply,1
56,Chad Savage,Teen 14-15,M,,,,306.17,SBD,Single-ply,2
56,Chris Byrnes,Teen 16-17,M,,,,405.97,SBD,Single-ply,1
56,Mike Fosmise,Teen 16-17,M,,,,362.87,SBD,Single-ply,2
56,Wayne Fosmise,Teen 18-19,M,,,,367.41,SBD,Single-ply,1
60,George Lafne,Teen 14-15,M,,,,358.34,SBD,Single-ply,1
60,Chad St John,Teen 14-15,M,,,,290.3,SBD,Single-ply,2
60,Bernie Palmer,Teen 14-15,M,,,,276.69,SBD,Single-ply,3
60,Neil Charron,Teen 16-17,M,,,,453.59,SBD,Single-ply,1
60,M. Padovan,Teen 16-17,M,,,,449.06,SBD,Single-ply,2
60,Joe Lelfert,Teen 16-17,M,,,,378.75,SBD,Single-ply,3
60,Joe Baker,Teen 16-17,M,,,,351.53,SBD,Single-ply,4
60,Bryan Love,Teen 18-19,M,,,,455.86,SBD,Single-ply,1
60,Chad Piper,Teen 18-19,M,,,,360.61,SBD,Single-ply,2
67.5,Greg Lapenna,Teen 14-15,M,,,,394.63,SBD,Single-ply,1
67.5,P. Bricoccoli,Teen 14-15,M,,,,317.51,SBD,Single-ply,2
67.5,Brian Nelson,Teen 14-15,M,,,,312.98,SBD,Single-ply,3
67.5,Dave Dewyea,Teen 14-15,M,,,,308.44,SBD,Single-ply,4
67.5,Dave Cauthier,Teen 16-17,M,,,,535.24,SBD,Single-ply,1
67.5,Tim Reilly,Teen 16-17,M,,,,494.42,SBD,Single-ply,2
67.5,Keith Joller,Teen 16-17,M,,,,476.27,SBD,Single-ply,3
67.5,Paul Ciola,Teen 16-17,M,,,,449.06,SBD,Single-ply,4
67.5,Frank Mintz,Teen 16-17,M,,,,426.38,SBD,Single-ply,5
67.5,Mathew Dlan,Teen 16-17,M,,,,367.41,SBD,Single-ply,6
67.5,Raymond Clifton,Teen 18-19,M,,,,566.99,SBD,Single-ply,1
67.5,Ron Daly,Teen 18-19,M,,,,487.61,SBD,Single-ply,2
67.5,John Daly,Teen 18-19,M,,,,424.11,SBD,Single-ply,3
67.5,B. Abrahamson,Teen 18-19,M,,,,401.43,SBD,Single-ply,4
67.5,Tom Halloran,Teen 18-19,M,,,,396.89,SBD,Single-ply,5
67.5,Tom Cameane,Teen 18-19,M,,,,365.14,SBD,Single-ply,6
75,Jim Ciuffo,Teen 14-15,M,,,,505.76,SBD,Single-ply,1
75,Neil Flynn,Teen 14-15,M,,,,483.08,SBD,Single-ply,2
75,Dean Armando,Teen 14-15,M,,,,367.41,SBD,Single-ply,3
75,Mark Lafibvre,Teen 14-15,M,,,,310.71,SBD,Single-ply,4
75,Brian McFarran,Teen 16-17,M,,,,498.95,SBD,Single-ply,1
75,Joe Aliberti,Teen 16-17,M,,,,430.91,SBD,Single-ply,2
75,Noel Wester,Teen 16-17,M,,,,426.38,SBD,Single-ply,3
75,Joe Miner,Teen 16-17,M,,,,424.11,SBD,Single-ply,4
75,P. Fidopiastis,Teen 16-17,M,,,,412.77,SBD,Single-ply,5
75,B. Mousseau,Teen 16-17,M,,,,412.77,SBD,Single-ply,6
75,Gilen Diego,Teen 18-19,M,,,,417.3,SBD,Single-ply,7
75,C. Conflssoro,20-23,M,,,,707.6,SBD,Single-ply,1
75,L. Hughes,20-23,M,,,,605.55,SBD,Single-ply,2
75,Pat Leusior,20-23,M,,,,530.7,SBD,Single-ply,3
82.5,John Sevile,Teen 14-15,M,,,,408.23,SBD,Single-ply,1
82.5,Scott Endieveri,Teen 14-15,M,,,,405.97,SBD,Single-ply,2
82.5,Pat Layes,Teen 14-15,M,,,,308.44,SBD,Single-ply,3
82.5,Howard Allen,Teen 14-15,M,,,,299.37,SBD,Single-ply,4
82.5,Mike Endieveri,Teen 16-17,M,,,,546.58,SBD,Single-ply,1
82.5,Tom Incladon,Teen 16-17,M,,,,519.36,SBD,Single-ply,2
82.5,Truce Mebone,Teen 16-17,M,,,,514.83,SBD,Single-ply,3
82.5,Gary Madore,Teen 16-17,M,,,,483.08,SBD,Single-ply,4
82.5,Mike Bernnia,Teen 16-17,M,,,,433.18,SBD,Single-ply,5
82.5,Mark Nelson,Teen 16-17,M,,,,374.21,SBD,Single-ply,6
90,Chris Klossner,Teen 18-19,M,,,,589.67,SBD,Single-ply,1
90,Robert Bucco,Teen 18-19,M,,,,566.99,SBD,Single-ply,2
90,Tony Desstino,Teen 18-19,M,,,,557.92,SBD,Single-ply,3
90,John Drath,Teen 18-19,M,,,,492.15,SBD,Single-ply,4
90,Tony Tarbione,Teen 18-19,M,,,,489.88,SBD,Single-ply,5
90,Dave French,20-23,M,,,,630.49,SBD,Single-ply,1
90,J. Vandaharr,20-23,M,,,,530.7,SBD,Single-ply,2
100,Kirk Roberts,Teen 14-15,M,,,,347,SBD,Single-ply,1
100,John Magee,Teen 16-17,M,,,,532.97,SBD,Single-ply,1
100,Greg Bennet,Teen 16-17,M,,,,390.09,SBD,Single-ply,2
100,Jeff Howard,Teen 18-19,M,,,,612.35,SBD,Single-ply,1
100,Brian Dorn,Teen 18-19,M,,,,607.81,SBD,Single-ply,2
100,Mark Kodya,20-23,M,,,,471.74,SBD,Single-ply,1
110,John Prevost,Teen 16-17,M,,,,551.11,SBD,Single-ply,1
110,Erick Mason,Teen 18-19,M,,,,476.27,SBD,Single-ply,1
125,D. Digiorgio,Teen 14-15,M,,,,430.91,SBD,Single-ply,1
125,Ed Smith,Teen 16-17,M,,,,453.59,SBD,Single-ply,1
125,Jim Stoy,Teen 18-19,M,,,,650.91,SBD,Single-ply,1
