Place,Name,BirthYear,Country,BodyweightKg,Bench1Kg,Bench2Kg,Bench3Kg,Bench4Kg,Best3BenchKg,TotalKg,WeightClassKg,Division,Event,Sex,Equipment
1,Doris Illeditsch-Wanner,1963,Germany,47.72,-77.5,77.5,-82.5,,77.5,77.5,48,Masters 1,B,F,Single-ply
1,Hanna Svahn,1963,Denmark,51.29,92.5,-97.5,97.5,,97.5,97.5,52,Masters 1,B,F,Single-ply
1,Karin Engelbrecht,1956,Germany,52.25,82.5,85,87.5,,87.5,87.5,56,Masters 1,B,F,Single-ply
2,Päivi Bodbacka,1958,Finland,54.56,70,75,77.5,,77.5,77.5,56,Masters 1,B,F,Single-ply
3,Françoise Sahut,1956,France,53.59,67.5,70,-72.5,,70,70,56,Masters 1,B,F,Single-ply
4,Iwona Winiarska,1963,Poland,55.84,-60,65,-72.5,,65,65,56,Masters 1,B,F,Single-ply
1,Daniele Taret,1958,France,59.72,100,107.5,-115,,107.5,107.5,60,Masters 1,B,F,Single-ply
2,Monika Schnölzer,1963,Germany,59.1,85,90,95,,95,95,60,Masters 1,B,F,Single-ply
3,Manuela Anger,1963,Germany,59.25,52.5,55,60,,60,60,60,Masters 1,B,F,Single-ply
1,Marion Hammang,1964,Luxembourg,66.82,110,-115,115,,115,115,67.5,Masters 1,B,F,Single-ply
2,Evelyne Herbin,1956,France,65.82,90,100,-110,,100,100,67.5,Masters 1,B,F,Single-ply
3,Beatrix Berg,1963,Germany,65.39,65,70,-72.5,,70,70,67.5,Masters 1,B,F,Single-ply
4,Edith Fenzl,1964,Austria,63.3,30,37.5,40,,40,40,67.5,Masters 1,B,F,Single-ply
1,Regina Haas,1962,Germany,71,107.5,110,115,,115,115,75,Masters 1,B,F,Single-ply
2,Åsa Halvarsson,1962,Sweden,74.38,105,110,115,,115,115,75,Masters 1,B,F,Single-ply
3,Mariet Spronk,1955,Netherlands,73.14,105,-110,110,,110,110,75,Masters 1,B,F,Single-ply
4,Ursula Häuser,1960,Germany,72.88,97.5,105,-110,,105,105,75,Masters 1,B,F,Single-ply
1,Nathalie Cornu,1963,France,75.23,100,105,110,,110,110,82.5,Masters 1,B,F,Single-ply
2,Birgit Witt,1963,Germany,81.69,100,107.5,-112.5,,107.5,107.5,82.5,Masters 1,B,F,Single-ply
1,Barbara Pawlik,1959,Poland,83.31,105,112.5,-120,,112.5,112.5,90,Masters 1,B,F,Single-ply
1,Merja Mynttinen,1958,Finland,104.98,135,-140,-140,,135,135,90+,Masters 1,B,F,Single-ply
2,Christine Schopper,1961,France,101.06,-122.5,122.5,-127.5,,122.5,122.5,90+,Masters 1,B,F,Single-ply
1,Ghislaine Debacker,1949,France,43.43,57.5,62.5,-65,,62.5,62.5,44,Masters 2,B,F,Single-ply
DQ,Claudine Lacombe,1951,France,42.21,-60,-60,,,,,48,Masters 2,B,F,Single-ply
1,Karin Offei,1948,Germany,46.87,70,-72.5,-75,,70,70,48,Masters 2,B,F,Single-ply
2,Irmeli Vaulakorpi,1954,Finland,47.04,65,70,-75,,70,70,48,Masters 2,B,F,Single-ply
3,Carmen Motais,1953,France,47.01,60,65,-67.5,,65,65,48,Masters 2,B,F,Single-ply
1,Françoise Heligon,1943,France,51.98,60,62.5,-65,,62.5,62.5,52,Masters 2,B,F,Single-ply
2,Seija Turunen,1947,Finland,49.42,52.5,60,-62.5,,60,60,52,Masters 2,B,F,Single-ply
3,Maryse Malicot,1946,France,51.45,55,-57.5,-57.5,,55,55,52,Masters 2,B,F,Single-ply
1,Adina Hyková,1943,Czechia,55.89,70,75,-80,,75,75,56,Masters 2,B,F,Single-ply
2,Sabine Dreißig,1953,Germany,53.87,52.5,57.5,60,,60,60,56,Masters 2,B,F,Single-ply
1,Tonia Strik,1950,Netherlands,57.65,70,72.5,75,,75,75,60,Masters 2,B,F,Single-ply
2,Marianne Lankau,1953,Germany,58.65,52.5,-55,55,,55,55,60,Masters 2,B,F,Single-ply
3,Ursula Nothnagel,1936,Germany,59.17,52.5,-55,55,,55,55,60,Masters 2,B,F,Single-ply
1,Aly Keizer,1951,Netherlands,63.71,82.5,87.5,90.5,92.5,90.5,90,67.5,Masters 2,B,F,Single-ply
2,Anita Thimm,1950,Germany,62.67,77.5,-80,80,,80,80,67.5,Masters 2,B,F,Single-ply
3,Aline Soulard,1942,France,60.38,72.5,77.5,-80,,77.5,77.5,67.5,Masters 2,B,F,Single-ply
4,Erika Wimmer,1940,Germany,66.22,57.5,60,62.5,,62.5,62.5,67.5,Masters 2,B,F,Single-ply
1,Joke van der Meulen,1951,Netherlands,74.66,82.5,87.5,92.5,,92.5,92.5,75,Masters 2,B,F,Single-ply
2,Renate Spiegel,1939,Germany,70.04,65,-67.5,67.5,,67.5,67.5,75,Masters 2,B,F,Single-ply
3,Anke Beninga,1954,Germany,71.68,62.5,-67.5,-67.5,,62.5,62.5,75,Masters 2,B,F,Single-ply
1,Hana Takáčová,1954,Czechia,78.79,120,125.5,127.5,130,127.5,127.5,82.5,Masters 2,B,F,Single-ply
2,Ursula Eulenstein,1949,Germany,77.24,65,70,-72.5,,70,70,82.5,Masters 2,B,F,Single-ply
1,Rosemarie Beer,1945,Austria,82.98,112.5,117.5,122.5,,122.5,122.5,90,Masters 2,B,F,Single-ply
2,Eva Speth,1954,Germany,86.68,107.5,-112.5,-112.5,,107.5,107.5,90,Masters 2,B,F,Single-ply
1,Alexander Moiseev,1954,Belarus,55.42,95,105,-110,,105,105,56,Masters 2,B,M,Single-ply
1,Jean-Pierre Grondin,1952,France,59.7,115,120,127.5,,127.5,127.5,60,Masters 2,B,M,Single-ply
1,Claude Sitruk,1950,France,62.45,165,172.5,177,,177,177,67.5,Masters 2,B,M,Single-ply
2,Ernst Klewe,1950,Germany,67,145,-152.5,-152.5,,145,145,67.5,Masters 2,B,M,Single-ply
3,Jouko Kastegren,1954,Finland,67.42,132.5,137.5,-140,,137.5,137.5,67.5,Masters 2,B,M,Single-ply
4,Jean-Jacques Chesnais,1949,France,66.8,125,-130,-132.5,,125,125,67.5,Masters 2,B,M,Single-ply
5,Burkhard Steffen,1950,Germany,67.3,117.5,-122.5,-122.5,,117.5,117.5,67.5,Masters 2,B,M,Single-ply
1,Jose Iglesias,1952,Spain,74.28,140,150,152.5,,152.5,152.5,75,Masters 2,B,M,Single-ply
2,Sergei Nikiforov,1947,Russia,73.83,140,147.5,-150,,147.5,147.5,75,Masters 2,B,M,Single-ply
3,Harald Peschl,1945,Germany,74.43,140,147.5,-152.5,,147.5,147.5,75,Masters 2,B,M,Single-ply
4,Eero Mäntysaari,1954,Finland,73.95,-127.5,130,140,,140,140,75,Masters 2,B,M,Single-ply
1,Bjarne Synstad,1951,Norway,79.96,185,190,192.5,195,192.5,192.5,82.5,Masters 2,B,M,Single-ply
2,Ilkka Launonen,1954,Finland,81,177.5,-185,-187.5,,177.5,177.5,82.5,Masters 2,B,M,Single-ply
3,Alexander Vesic,1953,Germany,81.35,-170,170,-180,,170,170,82.5,Masters 2,B,M,Single-ply
1,Stanislas Couchy,1953,France,89.4,175,180,185,,185,185,90,Masters 2,B,M,Single-ply
2,Reinhard Hermann,1950,Germany,87.71,160,170,-177.5,,170,170,90,Masters 2,B,M,Single-ply
3,Juhani Lindholm,1949,Finland,87.72,160,170,-177.5,,170,170,90,Masters 2,B,M,Single-ply
4,Emil Schmutzenhofer,1949,Austria,89.96,150,-160,-160,,150,150,90,Masters 2,B,M,Single-ply
1,Jean-Pierre Aymon,1954,Austria,97.78,-205,205,210,,210,210,100,Masters 2,B,M,Single-ply
2,Axel Gersdorf,1951,Germany,95,180,185,-190,,185,185,100,Masters 2,B,M,Single-ply
3,Jiří Horník,1948,Czechia,98.28,160,-170,-170,,160,160,100,Masters 2,B,M,Single-ply
4,Ivan Dewitte,1946,Belgium,93.96,140,-145,145,,145,145,100,Masters 2,B,M,Single-ply
DQ,Jukka Lehtinen,1954,Finland,98.45,-182.5,-190,-190,,,,100,Masters 2,B,M,Single-ply
1,Jerzy Furmanek,1952,Poland,103.25,230,-240.5,-240.5,,230,230,110,Masters 2,B,M,Single-ply
2,Simon Reitzle,1949,Germany,106.5,190,200,-202.5,,200,200,110,Masters 2,B,M,Single-ply
3,Kurt Nygård,1946,Finland,108.89,-195,-197.5,197.5,,197.5,197.5,110,Masters 2,B,M,Single-ply
4,Laurent Durocher,1952,France,101.02,-185,-190,190,,190,190,110,Masters 2,B,M,Single-ply
5,Allan Fuglsang,1950,Denmark,108.1,175,-185,-192.5,,175,175,110,Masters 2,B,M,Single-ply
6,Reijo Jaakkola,1948,Finland,101.04,170,-180,-185,,170,170,110,Masters 2,B,M,Single-ply
1,Niilo Maliniemi,1946,Sweden,118.13,220,227.5,232.5,,232.5,232.5,125,Masters 2,B,M,Single-ply
2,Esa Tähtinen,1952,Finland,110.64,-190,190,-200,,190,190,125,Masters 2,B,M,Single-ply
3,Walter Kurda,1953,Germany,112.6,165,172.5,-180,,172.5,172.5,125,Masters 2,B,M,Single-ply
DQ,Antonín Šota,1952,Czechia,117.85,-225,-225,-225,,,,125,Masters 2,B,M,Single-ply
DQ,Tuomo Löllö,1953,Finland,121.08,-200,-200,-200,,,,125,Masters 2,B,M,Single-ply
1,Eberhard Schwanke,1953,Germany,136.18,240,252.5,-265,,252.5,252.5,125+,Masters 2,B,M,Single-ply
2,Karl-Heinz Voscul,1949,Germany,146.8,160,170,175,,175,175,125+,Masters 2,B,M,Single-ply
1,Josef Fenzl,1960,Austria,51.69,50,57.5,62.5,,62.5,62.5,52,Masters 1,B,M,Single-ply
1,Carmelo Virzi,1957,Germany,54.5,90,95,-100,,95,95,56,Masters 1,B,M,Single-ply
1,Jürgen Hary,1959,Germany,59.22,110,120,125,,125,125,60,Masters 1,B,M,Single-ply
2,Hannu Peräsalo,1958,Finland,59.92,-95,100,-110,,100,100,60,Masters 1,B,M,Single-ply
1,Bent Hansen,1941,Denmark,59.5,75,82.5,87.5,,87.5,87.5,60,Masters 3,B,M,Single-ply
1,Erkki Rajala,1962,Finland,66.71,175,-177.5,-180,,175,175,67.5,Masters 1,B,M,Single-ply
2,Adriano DaCosta,1963,France,67.45,160,167.5,172.5,,172.5,172.5,67.5,Masters 1,B,M,Single-ply
3,Pekka Kihlström,1959,Sweden,66.85,160,-170,-177.5,,160,160,67.5,Masters 1,B,M,Single-ply
4,Peter Muigg,1958,Austria,66.86,147.5,-155,-155,,147.5,147.5,67.5,Masters 1,B,M,Single-ply
1,Daniel Epineau,1943,France,66.15,120,130,133.5,,133.5,133.5,67.5,Masters 3,B,M,Single-ply
2,Ulrich Mielich,1939,Germany,66.8,67.5,72.5,-75,,72.5,72.5,67.5,Masters 3,B,M,Single-ply
1,Detlef Heinrich,1956,Germany,74.08,-180,180,-185,,180,180,75,Masters 1,B,M,Single-ply
2,Bruno Lespoix,1956,France,74.56,170,177.5,-185,,177.5,177.5,75,Masters 1,B,M,Single-ply
3,Eric Rasmussen,1962,Denmark,74.89,-172.5,175,-182.5,,175,175,75,Masters 1,B,M,Single-ply
4,Georges Mingot,1964,France,74.58,165,170,-175,,170,170,75,Masters 1,B,M,Single-ply
5,Kari Remes,1960,Finland,74.51,-162.5,167.5,-177.5,,167.5,167.5,75,Masters 1,B,M,Single-ply
6,Raymond Fixmer,1958,Luxembourg,74.45,-150,150,-155,,150,150,75,Masters 1,B,M,Single-ply
7,Francesco Crapanzano,1955,Belgium,68.35,135,140,-142.5,,140,140,75,Masters 1,B,M,Single-ply
1,Börje Eriksson,1942,Sweden,73.77,-130,130,-147.5,,130,130,75,Masters 3,B,M,Single-ply
2,Daniel Reybrouck,1942,Belgium,73.91,125,130,-137.5,,130,130,75,Masters 3,B,M,Single-ply
3,Ludwig Pfaus,1942,Germany,73.48,-120,120,-130,,120,120,75,Masters 3,B,M,Single-ply
1,Didier Compain,1959,France,82.17,202.5,205,207.5,-208.5,207.5,207.5,82.5,Masters 1,B,M,Single-ply
2,Veiko Friedrich,1964,Germany,82.26,195,202.5,-210,,202.5,202.5,82.5,Masters 1,B,M,Single-ply
3,Frank Heinrich,1958,Germany,81.69,-200,200,-207.5,,200,200,82.5,Masters 1,B,M,Single-ply
4,Patrick LeBlevennec,1963,France,81.74,192.5,-197.5,200,,200,200,82.5,Masters 1,B,M,Single-ply
1,Josef Page,1940,Germany,81.99,147.5,155,-157.5,,155,155,82.5,Masters 3,B,M,Single-ply
2,Werner Pasternak,1942,Germany,80.99,125,132.5,140,,140,140,82.5,Masters 3,B,M,Single-ply
3,Hans Jorgensen,1944,Denmark,81.06,130,140,-142.5,,140,140,82.5,Masters 3,B,M,Single-ply
1,Klaus-Dieter Jacob,1961,Germany,89.18,212.5,217.5,220,,220,220,90,Masters 1,B,M,Single-ply
2,Günter Stangel,1961,Germany,87.55,207.5,212.5,217.5,,217.5,217.5,90,Masters 1,B,M,Single-ply
3,Pascal Pares,1958,France,88.77,195,-202.5,212.5,,212.5,212.5,90,Masters 1,B,M,Single-ply
4,Dave Normand,1964,UK,86.92,200,210,-220,,210,210,90,Masters 1,B,M,Single-ply
5,Børre Borgersen,1963,Norway,87.69,-190,190,-195,,190,190,90,Masters 1,B,M,Single-ply
6,Joel Roulot,1961,France,87.98,190,-195,-195,,190,190,90,Masters 1,B,M,Single-ply
DQ,Lars Jönsson,1956,Sweden,88.59,-205,-205,-205,,,,90,Masters 1,B,M,Single-ply
1,Bill McFadyen,1934,UK,84.96,162.5,172.5,175,180,175,175,90,Masters 3,B,M,Single-ply
2,Günter Wittkowski,1940,Germany,89.69,165,170,175,,175,175,90,Masters 3,B,M,Single-ply
7,Per Berndorff,1960,Denmark,85.61,-145,160,172.5,,172.5,172.5,90,Masters 1,B,M,Single-ply
3,Wim Mudde,1939,Netherlands,89.4,155,-162.5,165,,165,165,90,Masters 3,B,M,Single-ply
4,Pascal Chabeau,1936,France,84.86,137.5,145,147.5,,147.5,147.5,90,Masters 3,B,M,Single-ply
5,Gerd Fell,1940,Germany,87.89,142.5,-147.5,147.5,,147.5,147.5,90,Masters 3,B,M,Single-ply
6,Norman Anderson,1937,UK,85.35,-135,140,145,,145,145,90,Masters 3,B,M,Single-ply
7,Petr Uher,1934,Czechia,88.55,-140,145,-155,,145,145,90,Masters 3,B,M,Single-ply
8,Vincent Palazzo,1940,Belgium,87.74,-140,140,-145,,140,140,90,Masters 3,B,M,Single-ply
1,Vladimir Volkov #1,1959,Russia,98.27,250,262.5,-270,,262.5,262.5,100,Masters 1,B,M,Single-ply
2,Tony Brown #2,1962,UK,98.51,220,-225,227.5,,227.5,227.5,100,Masters 1,B,M,Single-ply
3,Ian Kinghorn,1957,UK,98.41,205,-212.5,-217.5,,205,205,100,Masters 1,B,M,Single-ply
1,Marc LeBolay,1938,France,99.01,177.5,185,-190,,185,185,100,Masters 1,B,M,Single-ply
4,Jan Bertelsen,1955,Denmark,99.73,175,-185,185,,185,185,100,Masters 1,B,M,Single-ply
DQ,Juha Lehto,1964,Finland,99.38,-217.5,-217.5,-217.5,,,,100,Masters 1,B,M,Single-ply
2,Rudiger Schroer,1943,Germany,95.75,160,165,170,,170,170,100,Masters 3,B,M,Single-ply
3,Marc Vergnes-Blanquer,1939,France,97.24,152.5,157.5,160,,160,160,100,Masters 3,B,M,Single-ply
4,Leif Waldeck,1939,Sweden,98.34,145,-155,-160,,145,145,100,Masters 3,B,M,Single-ply
5,Josef Pohlkötter,1937,Germany,97.75,130,137.5,142.5,,142.5,142.5,100,Masters 3,B,M,Single-ply
6,Lou Demuth,1943,Luxembourg,95.5,125,130,-135,,130,130,100,Masters 3,B,M,Single-ply
1,Klaus Semskij,1964,Germany,107.29,245,-255,255,,255,255,110,Masters 1,B,M,Single-ply
2,Alexander Koblov,1956,Russia,108.57,235,247.5,252.5,,252.5,252.5,110,Masters 1,B,M,Single-ply
3,Pavlo Mohylnikov,1964,Ukraine,108.78,240,247.5,252.5,,252.5,252.5,110,Masters 1,B,M,Single-ply
4,Fred Jahnke,1957,Germany,108.76,235,-245,-247.5,,235,235,110,Masters 1,B,M,Single-ply
5,Leif Nielsen,1964,Denmark,108.23,215,225,227.5,,227.5,227.5,110,Masters 1,B,M,Single-ply
6,Jean-Louis Malotteau,1963,Belgium,102.7,195,202.5,207.5,,207.5,207.5,110,Masters 1,B,M,Single-ply
7,Didier Auclair,1957,France,106.95,-200,200,-207.5,,200,200,110,Masters 1,B,M,Single-ply
1,Hermann Seibold,1944,Germany,108.17,165,170,-175,,170,170,110,Masters 1,B,M,Single-ply
2,Maurice Cuvelier,1940,France,102.19,165,-175,-175,,165,165,110,Masters 1,B,M,Single-ply
1,Rainer Volkmann,1961,Germany,118.85,250,257.5,260,,260,260,125,Masters 1,B,M,Single-ply
2,Tor Svanes,1960,Norway,119.62,240,-245,-247.5,,240,240,125,Masters 1,B,M,Single-ply
3,A. Ringvold Vidar,1955,Norway,116.17,232.5,-242.5,-245,,232.5,232.5,125,Masters 1,B,M,Single-ply
4,Søren Eggebrecht,1959,Denmark,119.93,232.5,-242.5,-245,,232.5,232.5,125,Masters 1,B,M,Single-ply
5,Jean-Luc Collart,1959,Belgium,120.85,200,207.5,212.5,,212.5,212.5,125,Masters 1,B,M,Single-ply
6,Jean-Luc Moalli,1962,France,122.85,202.5,-212.5,-212.5,,202.5,202.5,125,Masters 1,B,M,Single-ply
1,Christer Nylund,1944,Finland,112.46,185,200.5,-210,,200.5,200,125,Masters 3,B,M,Single-ply
7,Jiri Kremar,1962,Czechia,115.62,-180,-180,190,,190,190,125,Masters 1,B,M,Single-ply
8,Julian Massey,1956,UK,114.2,-185,185,-195,,185,185,125,Masters 1,B,M,Single-ply
2,Peter Rumbler,1939,Germany,118.45,165,172.5,180,,180,180,125,Masters 3,B,M,Single-ply
3,Alfred Cosmici,1941,Germany,116.22,145,155,-162.5,,155,155,125,Masters 3,B,M,Single-ply
1,Jürgen Lochner,1959,Germany,148.52,255,-262.5,-267.5,,255,255,125+,Masters 1,B,M,Single-ply
2,Rafal Mus,1964,Poland,127.75,230,-240,-242.5,,230,230,125+,Masters 1,B,M,Single-ply
3,Piotr Pawlik,1955,Poland,133.05,230,-240,-240,,230,230,125+,Masters 1,B,M,Single-ply
4,Juha Ali-Tolppa,1956,Finland,127.53,210,-212.5,-212.5,,210,210,125+,Masters 1,B,M,Single-ply
DD,Massimo Papini,1957,Italy,125.33,-265,265,-267.5,,265,,125+,Masters 1,B,M,Single-ply
